,,,,,,,,,"citation : Résultats des élections législatives françaises premier tour du 05/03/1967 par circonscription, cdsp_legi1967t1_circ.xls [fichier informatique], Banque de Données Socio-Politiques, Grenoble [producteur], Centre de Données Socio-politiques [diffuseur], février 2009.",,,,,,,,,,,,
RESULTATS ELECTIONS LEGISLATIVES premier tour du 05-03-1967,,,,,,,,,473 circonscriptions,,,,,,,,,,,,
,,,,,,,,,,,,,,,,,,,,,
,,,,,,,,,,,,,,,,,,,,,
Code département,département,circonscription,Inscrits,Votants,Exprimés,Blancs et nuls,Parti communiste,Parti communiste- apparentés,Parti Socialiste Unifié,Extrême Gauche,Fédération de la Gauche Démocrate et Socialiste,Radicaux de droite,Union des Démocrates pour la Vème République,Divers gaullistes,Républicains Indépendants,Centristes ralliés,Modérés,Centre Démocrate,Divers extrême droite,Alliance républicaine,Régionalistes
,,,,,,,COM,COM,PSU,EXG,FGDS,RADDROIT,UD5,DIVGAULL,RI,RALLIE,MOD,CENTDEM,EXD,ALLREP,DIV
01,AIN,1,69203,49664,48827,837,6607,0,0,0,12348,0,10509,0,0,0,1471,17892,0,0,0
01,AIN,2,68488,52566,51429,1137,11105,0,0,0,10352,0,0,0,27551,0,2421,0,0,0,0
01,AIN,3,69228,51989,50783,1206,7692,0,0,0,10140,0,0,0,15907,0,1144,15900,0,0,0
02,AISNE,1,52692,45051,44283,768,8772,0,0,0,6240,0,17429,0,0,0,566,11276,0,0,0
02,AISNE,2,69131,57703,56349,1354,16579,0,0,0,10338,0,24491,0,0,0,0,4941,0,0,0
02,AISNE,3,47842,40917,39891,1026,10667,0,0,0,8930,0,16638,0,0,0,0,3656,0,0,0
02,AISNE,4,53695,45488,44066,1422,12999,0,0,0,9745,0,21322,0,0,0,0,0,0,0,0
02,AISNE,5,67454,56608,55880,728,14351,0,4627,0,0,23807,13095,0,0,0,0,0,0,0,0
03,ALLIER,1,55505,42697,41611,1086,13424,0,0,0,6438,0,11534,0,0,0,10215,0,0,0,0
03,ALLIER,2,64218,52704,51409,1295,19342,0,0,0,20331,0,11736,0,0,0,0,0,0,0,0
03,ALLIER,3,56938,44478,43587,891,16677,0,0,0,10849,0,11202,0,0,0,1311,3548,0,0,0
03,ALLIER,4,67101,52938,51999,939,9381,0,1,0,24905,0,0,0,13219,0,0,3473,0,1020,0
04,ALPES-DE-HAUTE-PROVENCE,1,31469,24727,24068,659,5832,0,0,0,8598,0,7110,0,0,0,0,2528,0,0,0
04,ALPES-DE-HAUTE-PROVENCE,2,32447,26040,25408,632,7257,0,0,0,8195,206,6476,0,0,0,0,3274,0,0,0
05,HAUTES-ALPES,1,31803,25560,25052,508,5524,0,0,367,5709,0,7141,1679,0,0,0,4632,0,0,0
05,HAUTES-ALPES,2,25902,19411,18891,520,3666,0,0,0,3240,4286,0,0,7699,0,0,0,0,0,0
06,ALPES-MARITIMES,1,62083,49964,48315,1649,18074,0,0,0,5660,0,16389,0,0,0,923,7269,0,0,0
06,ALPES-MARITIMES,2,67919,54220,53034,1186,9820,0,2723,0,0,0,16621,0,0,0,606,23264,0,0,0
06,ALPES-MARITIMES,3,70716,55523,54026,1497,12575,0,0,0,9887,0,0,3281,18925,0,0,8636,722,0,0
06,ALPES-MARITIMES,4,62382,49912,48748,1164,13075,0,0,0,3690,0,12262,0,0,0,0,19721,0,0,0
06,ALPES-MARITIMES,5,77896,61776,60096,1680,13219,0,0,0,0,0,17898,0,0,0,0,28979,0,0,0
06,ALPES-MARITIMES,6,77387,60581,58770,1811,14412,0,0,0,11619,0,25264,0,0,0,0,7475,0,0,0
07,ARDECHE,1,58376,46782,45975,807,14224,0,0,0,7316,0,12693,4038,0,0,0,7169,0,535,0
07,ARDECHE,2,56767,45695,44814,881,6905,0,0,0,9271,0,8922,0,0,0,0,19716,0,0,0
07,ARDECHE,3,50491,39256,38751,505,10407,0,0,0,2650,0,10579,0,0,0,2376,12739,0,0,0
08,ARDENNES,1,54086,42652,41666,986,10935,0,0,0,7021,0,15632,0,0,0,1452,6626,0,0,0
08,ARDENNES,2,60305,48969,48098,871,12525,0,0,0,14117,0,17873,0,0,0,0,3583,0,0,0
08,ARDENNES,3,51990,42267,41342,925,7428,0,12888,0,0,0,12498,0,0,0,3350,5178,0,0,0
09,ARIEGE,1,45012,35188,34264,924,7825,0,0,0,14990,0,11449,0,0,0,0,0,0,0,0
09,ARIEGE,2,49443,38368,37511,857,9589,0,1849,0,12307,0,11025,1365,0,0,0,1376,0,0,0
10,AUBE,1,44085,35492,34449,1043,8855,0,0,0,6394,0,14501,0,0,0,0,4699,0,0,0
10,AUBE,2,51232,40984,40017,967,8551,0,0,0,11149,0,0,0,16300,0,0,4017,0,0,0
10,AUBE,3,58702,47762,46607,1155,13749,0,0,0,9520,0,15651,0,0,0,0,7687,0,0,0
11,AUDE,1,58089,48331,47186,1145,13584,0,0,0,15348,2054,11865,0,0,0,0,4335,0,0,0
11,AUDE,2,63899,52673,51183,1490,11920,0,0,0,25493,0,9233,0,0,0,0,4537,0,0,0
11,AUDE,3,53134,43833,42462,1371,6761,0,0,0,18213,0,0,0,0,14051,0,3437,0,0,0
12,AVEYRON,1,60708,50870,49512,1358,4066,0,0,0,6593,0,0,0,32019,0,0,6834,0,0,0
12,AVEYRON,2,59437,49080,48183,897,6120,0,0,0,22092,0,0,0,14874,0,0,5097,0,0,0
12,AVEYRON,3,65824,54384,52910,1474,4883,0,1828,0,5785,0,25372,0,0,0,0,12712,2330,0,0
13,BOUCHES-DU-RHONE,1,49908,33027,32322,705,5767,0,0,588,5511,0,9864,1112,0,0,1960,5082,0,2438,0
13,BOUCHES-DU-RHONE,2,81331,59329,58310,1019,11257,0,0,5441,11238,0,18226,586,0,0,0,7634,0,3928,0
13,BOUCHES-DU-RHONE,3,59389,41099,40142,957,11149,0,0,1278,13469,0,9998,1038,0,0,1015,2195,0,0,0
13,BOUCHES-DU-RHONE,4,60453,45804,44845,959,24055,0,0,0,6593,0,10201,0,0,0,0,2253,1743,0,0
13,BOUCHES-DU-RHONE,5,57225,40999,40080,919,12566,0,0,3594,7825,0,9564,1503,0,0,0,2934,0,2094,0
13,BOUCHES-DU-RHONE,6,62258,48626,47482,1144,21171,0,0,0,11817,0,10055,0,0,0,0,2284,0,2155,0
13,BOUCHES-DU-RHONE,7,53060,36913,36088,825,14654,0,0,771,6604,0,7960,2259,0,0,0,2177,0,1663,0
13,BOUCHES-DU-RHONE,8,79193,59078,57893,1185,15624,0,0,879,19489,0,14046,1641,0,0,0,4473,1741,0,0
13,BOUCHES-DU-RHONE,9,80021,63415,62088,1327,11684,0,0,0,24664,0,15705,0,0,0,0,10035,0,0,0
13,BOUCHES-DU-RHONE,10,102373,80819,78967,1852,29995,0,0,0,21323,0,17905,0,0,0,0,7093,2651,0,0
13,BOUCHES-DU-RHONE,11,73738,60516,58797,1719,18302,0,0,0,23107,0,12805,0,0,0,4583,0,0,0,0
14,CALVADOS,1,87616,70013,68577,1436,12831,0,4359,0,10026,0,32419,0,0,0,0,8942,0,0,0
14,CALVADOS,2,50716,40791,39602,1189,6523,0,1432,0,5459,0,19185,0,0,0,0,7003,0,0,0
14,CALVADOS,3,56815,46017,45136,881,15114,0,2603,0,0,0,0,0,21271,0,0,6148,0,0,0
14,CALVADOS,4,41211,33696,32770,926,4294,0,0,0,3427,0,18535,0,0,0,0,6514,0,0,0
14,CALVADOS,5,47870,39164,37930,1234,3621,0,0,0,3346,0,18213,0,0,0,0,12750,0,0,0
15,CANTAL,1,57298,43773,43065,708,6621,0,0,0,12881,0,0,0,0,20098,0,3465,0,0,0
15,CANTAL,2,50757,41187,40782,405,4198,0,0,0,1963,6600,25392,0,0,0,0,2284,0,345,0
16,CHARENTE,1,80369,62290,60714,1576,12549,0,0,0,10969,0,29534,0,0,0,0,7662,0,0,0
16,CHARENTE,2,60030,46204,44280,1924,10787,0,0,0,20484,0,13009,0,0,0,0,0,0,0,0
16,CHARENTE,3,65525,52036,50511,1525,16914,0,0,0,5827,0,10796,0,0,0,0,16974,0,0,0
17,CHARENTE-MARITIME,1,67210,52315,51493,822,10496,0,1422,0,11305,0,24184,0,0,0,0,4086,0,0,0
17,CHARENTE-MARITIME,2,43952,32582,31793,789,6822,0,0,0,6984,0,14470,0,0,0,0,3517,0,0,0
17,CHARENTE-MARITIME,3,45985,35034,34308,726,4457,0,0,0,7506,0,5648,0,0,0,0,16697,0,0,0
17,CHARENTE-MARITIME,4,68895,51538,49669,1869,8571,0,0,0,18439,0,14646,0,0,0,0,8013,0,0,0
17,CHARENTE-MARITIME,5,65768,50692,49436,1256,8824,0,9635,0,0,0,23988,0,0,0,0,6989,0,0,0
18,CHER,1,61831,51795,50694,1101,13827,0,7370,0,0,0,0,2688,26809,0,0,0,0,0,0
18,CHER,2,64071,52388,51261,1127,18556,0,0,0,5496,0,20695,0,0,0,0,6514,0,0,0
18,CHER,3,57438,44280,43304,976,14299,0,0,0,4967,0,16915,0,0,0,7123,0,0,0,0
19,CORREZE,1,55301,45126,44364,762,15928,0,0,0,17286,0,11150,0,0,0,0,0,0,0,0
19,CORREZE,2,61724,52077,51307,770,10996,0,0,0,15215,0,25096,0,0,0,0,0,0,0,0
19,CORREZE,3,44305,36227,35716,511,10567,0,1203,0,8657,0,15289,0,0,0,0,0,0,0,0
20,CORSE,1,61868,40324,39974,350,5229,0,0,0,12006,0,20831,0,0,0,0,0,0,1908,0
20,CORSE,2,50591,31807,31493,314,5091,0,0,0,8470,0,9726,0,0,0,6343,1863,0,0,0
20,CORSE,3,63518,44135,43840,295,3589,0,0,0,13299,0,23037,0,0,0,18,3897,0,0,0
21,COTE-D'OR,1,68942,51442,50481,961,9133,0,0,0,9103,0,14904,0,0,0,13126,4215,0,0,0
21,COTE-D'OR,2,65611,48382,47415,967,7650,0,0,0,10833,0,20460,0,0,0,0,8472,0,0,0
21,COTE-D'OR,3,50764,37505,36555,950,5701,0,0,0,9909,0,0,0,15246,0,0,5699,0,0,0
21,COTE-D'OR,4,48611,38203,37480,723,8048,0,0,0,12509,0,13828,0,0,0,0,3095,0,0,0
22,COTES-D'ARMOR,1,79950,67784,66920,864,12443,0,18165,0,0,0,27535,0,0,0,0,8777,0,0,0
22,COTES-D'ARMOR,2,60024,51570,50505,1065,11974,0,0,0,0,0,11060,0,0,0,0,27471,0,0,0
22,COTES-D'ARMOR,3,56563,48142,47358,784,12790,0,3995,0,3133,0,0,0,0,23215,0,4225,0,0,0
22,COTES-D'ARMOR,4,59943,51152,50784,368,16964,0,0,0,4793,0,0,0,0,13418,0,15609,0,0,0
22,COTES-D'ARMOR,5,67147,56410,55881,529,14831,0,8643,0,0,0,10903,0,0,0,0,20925,0,579,0
23,CREUSE,1,50447,38345,37746,599,10734,0,8933,0,0,9341,8738,0,0,0,0,0,0,0,0
23,CREUSE,2,57318,43290,42512,778,12036,0,0,0,16197,0,14279,0,0,0,0,0,0,0,0
24,DORDOGNE,1,64611,54577,53632,945,17425,0,1719,0,9928,0,21715,0,0,0,0,2845,0,0,0
24,DORDOGNE,2,60634,49488,48478,1010,10064,0,0,0,14522,0,13877,0,0,0,0,10015,0,0,0
24,DORDOGNE,3,64555,53538,52081,1457,14759,0,0,0,19613,7373,10336,0,0,0,0,0,0,0,0
24,DORDOGNE,4,62356,51562,50372,1190,13308,0,0,0,19652,0,14645,0,0,0,0,2767,0,0,0
25,DOUBS,1,82326,64525,63126,1399,8492,0,0,0,15710,0,31279,0,0,0,0,7645,0,0,0
25,DOUBS,2,86002,70331,69006,1325,17739,0,0,0,23496,0,27771,0,0,0,0,0,0,0,0
25,DOUBS,3,52052,45681,43156,2525,4066,0,0,0,10600,0,28490,0,0,0,0,0,0,0,0
26,DROME,1,70292,54821,53765,1056,13343,0,6557,0,7741,0,16851,0,0,0,0,9273,0,0,0
26,DROME,2,59794,49053,48138,915,8714,0,0,0,20069,0,15018,0,0,0,0,4337,0,0,0
26,DROME,3,66334,51967,51148,819,10766,0,0,0,10691,0,18838,0,0,0,0,10853,0,0,0
27,EURE,1,62758,52885,51762,1123,8048,0,3489,0,9977,0,25436,0,0,0,4812,0,0,0,0
27,EURE,2,47930,38154,36849,1305,5533,0,0,0,7273,0,0,5932,16249,0,1862,0,0,0,0
27,EURE,3,51777,43443,42431,1012,9945,0,7111,0,0,0,10770,0,0,0,0,14605,0,0,0
27,EURE,4,51031,45709,44755,954,7563,0,0,0,8316,0,24245,0,0,0,0,4631,0,0,0
28,EURE-ET-LOIR,1,59006,49722,48645,1077,6316,0,2413,0,20040,0,15674,0,0,0,0,4202,0,0,0
28,EURE-ET-LOIR,2,57598,46563,45347,1216,7608,0,0,0,12753,0,19841,0,0,0,0,5145,0,0,0
28,EURE-ET-LOIR,3,57024,46074,44608,1466,10166,0,2419,0,8851,0,19226,0,0,0,3946,0,0,0,0
29,FINISTERE,1,63208,52447,51655,792,11166,0,4199,0,5165,0,15649,8427,0,0,0,7049,0,0,0
29,FINISTERE,2,85454,66745,66298,447,11942,0,0,0,5861,2578,21797,0,0,0,837,23283,0,0,0
29,FINISTERE,3,57816,51018,50326,692,5488,0,0,0,0,0,39807,0,0,0,0,5031,0,0,0
29,FINISTERE,4,55588,46840,46381,459,9045,0,12377,0,0,0,17301,0,0,0,0,7658,0,0,0
29,FINISTERE,5,56399,48093,47552,541,4671,0,0,0,0,0,19667,0,0,0,4739,18475,0,0,0
29,FINISTERE,6,57105,47353,47077,276,8729,0,0,0,7085,0,18238,0,0,0,0,13025,0,0,0
29,FINISTERE,7,51128,41754,41248,506,8070,0,0,0,7441,0,16721,0,0,0,0,9016,0,0,0
29,FINISTERE,8,60315,48820,48292,528,13486,0,0,0,9363,0,10030,0,0,0,0,15413,0,0,0
30,GARD,1,72841,54595,53272,1323,13859,0,0,0,10301,4261,16996,0,0,0,0,4878,0,2977,0
30,GARD,2,89936,72872,71085,1787,19414,0,0,0,18332,0,11677,0,0,0,0,21662,0,0,0
30,GARD,3,67341,56401,55079,1322,24400,0,0,0,9307,0,15204,0,0,0,0,6168,0,0,0
30,GARD,4,47560,37413,36064,1349,14241,0,0,0,11850,1204,8769,0,0,0,0,0,0,0,0
31,HAUTE-GARONNE,1,58218,45510,44365,1145,7654,0,1855,0,15123,0,14985,0,0,0,0,4748,0,0,0
31,HAUTE-GARONNE,2,67912,52773,51698,1075,8877,0,3082,0,13803,0,12481,0,0,0,0,13455,0,0,0
31,HAUTE-GARONNE,3,73961,57723,56374,1349,10279,0,2120,0,17940,3201,20756,1247,0,0,0,0,831,0,0
31,HAUTE-GARONNE,4,71008,56406,55063,1343,11397,0,3728,0,17366,0,15462,0,0,0,698,4624,1788,0,0
31,HAUTE-GARONNE,5,63450,53130,51865,1265,6902,0,0,0,15962,0,6018,0,0,0,21135,0,0,1848,0
31,HAUTE-GARONNE,6,56774,43755,42971,784,5436,0,0,0,14183,14021,9331,0,0,0,0,0,0,0,0
32,GERS,1,60073,46976,45879,1097,7849,0,0,0,14302,0,8181,0,0,0,0,15547,0,0,0
32,GERS,2,54857,43480,42640,840,5264,0,4567,0,9940,0,2634,0,0,0,0,20235,0,0,0
33,GIRONDE,1,77991,60267,59272,995,8490,0,0,0,11290,0,22587,4233,0,0,1258,8872,0,2542,0
33,GIRONDE,2,42252,31802,31237,565,3725,0,0,0,6814,0,15493,0,0,0,0,5205,0,0,0
33,GIRONDE,3,54020,41111,40388,723,5944,0,1117,0,12039,0,15863,0,0,0,774,4123,528,0,0
33,GIRONDE,4,57507,45494,44808,686,10022,0,0,0,18320,0,12328,0,0,0,407,3731,0,0,0
33,GIRONDE,5,55595,44976,44104,872,5083,0,0,0,7137,0,0,0,16106,0,0,15778,0,0,0
33,GIRONDE,6,72662,58592,57782,810,12379,0,0,933,19343,0,21359,0,0,0,381,3387,0,0,0
33,GIRONDE,7,66295,53714,52575,1139,6717,0,0,0,8745,0,16528,0,0,0,0,20585,0,0,0
33,GIRONDE,8,59290,48361,47199,1162,10052,0,0,0,11820,0,12234,0,0,0,2184,10909,0,0,0
33,GIRONDE,9,55073,43944,42942,1002,6688,0,0,0,9927,0,21078,0,0,0,2573,2676,0,0,0
33,GIRONDE,10,47164,36526,35416,1110,3104,0,0,0,6646,0,12980,0,0,0,6513,6173,0,0,0
34,HERAULT,1,78611,59377,57922,1455,12181,0,0,0,17649,0,0,847,15140,0,651,6543,0,4911,0
34,HERAULT,2,71404,54945,53884,1061,10339,0,0,0,15347,0,11675,0,0,0,789,13176,0,2558,0
34,HERAULT,3,63570,49584,48399,1185,17166,0,0,0,11849,0,10828,2139,0,0,0,4988,1429,0,0
34,HERAULT,4,66540,51824,50514,1310,17237,0,0,0,12905,0,13794,914,0,0,0,4697,967,0,0
34,HERAULT,5,49939,38764,38004,760,8565,0,0,0,18357,0,0,345,6753,0,0,3393,591,0,0
35,ILLE-ET-VILAINE,1,76707,59761,58408,1353,7190,0,11198,0,0,0,15188,0,0,0,0,24832,0,0,0
35,ILLE-ET-VILAINE,2,87768,71123,69910,1213,8713,0,0,0,13254,0,32928,0,0,0,0,15015,0,0,0
35,ILLE-ET-VILAINE,3,44793,39244,37999,1245,1352,0,0,0,5675,0,13475,0,0,0,0,17497,0,0,0
35,ILLE-ET-VILAINE,4,48734,39412,38730,682,3031,0,0,0,4264,0,0,0,22712,0,0,8723,0,0,0
35,ILLE-ET-VILAINE,5,48397,41853,40906,947,2875,0,0,0,4436,0,13795,6327,0,0,0,13473,0,0,0
35,ILLE-ET-VILAINE,6,75542,63703,62350,1353,7802,0,0,0,10802,0,34576,0,0,0,0,9170,0,0,0
36,INDRE,1,52154,42447,41363,1084,11861,0,0,0,11694,0,13065,0,0,0,0,4743,0,0,0
36,INDRE,2,55389,43608,42520,1088,13994,0,0,0,6789,0,12273,0,0,0,5486,3978,0,0,0
36,INDRE,3,52995,42624,41442,1182,11490,0,0,0,8914,1827,8596,431,0,0,0,10184,0,0,0
37,INDRE-ET-LOIRE,1,68029,54820,53826,994,11265,0,8081,0,0,0,31622,0,0,0,0,0,2858,0,0
37,INDRE-ET-LOIRE,2,56433,43925,42501,1424,6945,0,0,0,7514,0,15788,0,0,0,4050,8204,0,0,0
37,INDRE-ET-LOIRE,3,58323,47762,46321,1441,7482,0,0,0,17552,0,16928,0,0,0,0,4359,0,0,0
37,INDRE-ET-LOIRE,4,63618,51199,49664,1535,6882,0,0,0,9830,0,24349,0,0,0,0,6436,0,2167,0
38,ISERE,1,57429,46201,45063,1138,10763,0,11049,0,0,0,0,0,23251,0,0,0,0,0,0
38,ISERE,2,83896,64550,63431,1119,13113,0,21518,0,0,0,24108,0,0,0,1531,0,0,3161,0
38,ISERE,3,58523,44711,43964,747,15169,0,3380,0,10927,1382,13106,0,0,0,0,0,0,0,0
38,ISERE,4,54878,41572,40829,743,8727,0,0,0,9772,0,15440,0,0,0,0,5988,902,0,0
38,ISERE,5,63794,50345,49250,1095,8876,0,0,0,16062,0,18866,0,0,0,0,5446,0,0,0
38,ISERE,6,53716,41749,40855,894,13491,0,0,0,4822,0,0,0,15531,0,0,7011,0,0,0
38,ISERE,7,68007,50323,49480,843,10075,0,0,0,11207,1000,0,0,21885,0,1620,3693,0,0,0
39,JURA,1,71281,54931,53742,1189,8469,0,2263,0,6174,0,21901,0,0,0,0,14935,0,0,0
39,JURA,2,71356,57435,56440,995,8421,0,0,0,6830,23665,17524,0,0,0,0,0,0,0,0
40,LANDES,1,57115,47447,46530,917,6124,0,0,0,17830,0,19136,0,0,0,0,3440,0,0,0
40,LANDES,2,66447,56391,55431,960,8680,0,0,0,20419,0,20713,0,0,0,0,5619,0,0,0
40,LANDES,3,53921,45673,44938,735,6540,0,0,0,11347,0,7208,0,0,0,0,19843,0,0,0
41,LOIR-ET-CHER,1,60172,49571,48479,1092,11123,0,0,0,4824,0,14991,0,0,0,0,17541,0,0,0
41,LOIR-ET-CHER,2,53870,43727,42791,936,8666,0,0,0,15661,0,15474,0,0,0,0,2990,0,0,0
41,LOIR-ET-CHER,3,49227,40224,39152,1072,6117,0,0,0,15120,0,8669,0,0,0,0,9246,0,0,0
42,LOIRE,1,55359,41034,40284,750,11823,0,4855,0,0,15147,8459,0,0,0,0,0,0,0,0
42,LOIRE,2,71160,52998,52138,860,10315,0,0,0,10377,0,21205,0,0,0,4215,6026,0,0,0
42,LOIRE,3,62651,50107,49088,1019,8099,0,3721,0,6342,0,0,0,12113,0,0,18813,0,0,0
42,LOIRE,4,53460,42386,41595,791,14201,0,2015,0,3789,0,7335,0,0,0,0,12951,0,1304,0
42,LOIRE,5,60650,45459,44305,1154,11287,0,5058,0,0,0,14508,0,0,0,0,13452,0,0,0
42,LOIRE,6,46984,37104,36208,896,3621,0,0,0,9050,0,13047,0,0,0,4557,5933,0,0,0
42,LOIRE,7,63071,49553,48387,1166,5862,0,0,0,10691,0,0,0,14307,0,0,17527,0,0,0
43,HAUTE-LOIRE,1,69991,55586,54485,1101,4357,0,0,0,9460,0,0,0,16305,0,4050,20313,0,0,0
43,HAUTE-LOIRE,2,67459,50991,50075,916,5505,0,0,0,12196,0,13990,0,0,0,6869,11515,0,0,0
44,LOIRE-ATLANTIQUE,1,83446,64738,63852,886,8153,0,2687,0,13668,0,27169,0,0,0,4905,6636,634,0,0
44,LOIRE-ATLANTIQUE,2,61219,47520,46895,625,8625,0,0,0,11229,0,17944,0,0,0,3169,5928,0,0,0
44,LOIRE-ATLANTIQUE,3,59242,48200,47529,671,5721,0,0,0,13742,0,19570,0,0,0,4967,3529,0,0,0
44,LOIRE-ATLANTIQUE,4,65129,55425,53658,1767,2737,0,0,0,6146,0,0,0,17576,0,12480,14719,0,0,0
44,LOIRE-ATLANTIQUE,5,47147,41046,39903,1143,3128,0,0,0,4033,0,24852,0,0,0,0,7890,0,0,0
44,LOIRE-ATLANTIQUE,6,69496,55859,55079,780,8437,0,0,2446,15117,3411,15900,0,0,0,0,8733,1035,0,0
44,LOIRE-ATLANTIQUE,7,49599,41634,41028,606,3996,0,0,0,3427,0,19579,0,0,0,0,14026,0,0,0
44,LOIRE-ATLANTIQUE,8,55514,49043,47810,1233,2557,0,0,0,5187,0,28663,0,0,0,4099,7304,0,0,0
45,LOIRET,1,62036,50033,48618,1415,7638,0,2328,0,9041,0,22589,0,0,0,0,5354,0,1668,0
45,LOIRET,2,64151,52600,51286,1314,10949,0,0,0,9901,0,20792,0,0,0,0,9644,0,0,0
45,LOIRET,3,58264,47917,46568,1349,6890,0,0,0,6941,0,22895,0,0,0,2357,7485,0,0,0
45,LOIRET,4,61718,49285,48183,1102,10588,0,0,0,8125,0,0,0,23996,0,0,5474,0,0,0
46,LOT,1,51340,43023,42245,778,6108,0,0,0,7916,13388,14833,0,0,0,0,0,0,0,0
46,LOT,2,49499,41142,40323,819,10355,0,0,0,3611,11191,15166,0,0,0,0,0,0,0,0
47,LOT-ET-GARONNE,1,66008,54059,52663,1396,12164,0,0,0,13060,0,12880,0,0,0,0,14559,0,0,0
47,LOT-ET-GARONNE,2,53933,45246,44362,884,15115,0,0,0,6986,0,0,0,7210,0,3877,9975,0,1199,0
47,LOT-ET-GARONNE,3,55884,47830,46703,1127,8006,0,0,0,19066,0,18032,0,0,0,1599,0,0,0,0
48,LOZERE,1,28535,22759,22184,575,2537,0,0,0,4726,0,0,0,11703,0,0,3218,0,0,0
48,LOZERE,2,22708,19430,19081,349,1971,0,0,0,0,0,0,0,0,9796,1805,5509,0,0,0
49,MAINE-ET-LOIRE,1,49918,37991,37026,965,6253,0,0,0,5658,0,12216,4322,0,0,0,8577,0,0,0
49,MAINE-ET-LOIRE,2,55585,47062,45835,1227,7006,0,4212,0,0,0,25654,0,0,0,0,8963,0,0,0
49,MAINE-ET-LOIRE,3,45455,36526,34872,1654,5664,0,0,0,6311,0,22897,0,0,0,0,0,0,0,0
49,MAINE-ET-LOIRE,4,49111,40879,39282,1597,6260,0,0,0,0,0,22218,0,0,0,0,10804,0,0,0
49,MAINE-ET-LOIRE,5,64270,57880,56771,1109,4232,0,0,0,7308,0,30528,8625,0,0,0,6078,0,0,0
49,MAINE-ET-LOIRE,6,58005,48736,47265,1471,5727,0,0,0,7632,0,25173,0,0,0,0,8733,0,0,0
50,MANCHE,1,51496,40968,39633,1335,2019,0,0,0,5118,0,14031,6827,0,0,6496,5142,0,0,0
50,MANCHE,2,64893,53027,51638,1389,2667,0,0,0,3714,0,0,0,0,22613,22644,0,0,0,0
50,MANCHE,3,53287,42187,40983,1204,3125,0,0,0,5253,0,17297,7327,0,0,3448,4533,0,0,0
50,MANCHE,4,43047,35104,34377,727,2250,0,0,0,4053,0,21447,0,0,0,0,6627,0,0,0
50,MANCHE,5,50765,41604,40931,673,4724,0,0,0,11028,0,21897,0,0,0,0,3282,0,0,0
51,MARNE,1,64519,51626,50640,986,11567,0,0,0,8862,0,25019,0,0,0,0,5192,0,0,0
51,MARNE,2,67555,53367,52278,1089,14207,0,2556,0,6933,0,23247,0,0,0,0,5335,0,0,0
51,MARNE,3,66199,52855,51640,1215,11452,0,0,0,7841,0,21881,0,0,0,0,10466,0,0,0
51,MARNE,4,62440,50160,48986,1174,11400,0,0,0,8637,0,14799,0,0,0,0,14150,0,0,0
52,HAUTE-MARNE,1,65441,52625,50985,1640,5904,0,1627,0,15282,0,0,5475,17781,0,0,4916,0,0,0
52,HAUTE-MARNE,2,55044,44308,43366,942,11844,0,0,0,7041,0,18477,0,0,0,0,6004,0,0,0
53,MAYENNE,1,56750,48410,46431,1979,5044,0,0,0,8193,0,16884,0,0,0,0,16310,0,0,0
53,MAYENNE,2,48462,41164,39344,1820,4864,0,0,0,0,0,10136,1967,0,0,6133,16244,0,0,0
53,MAYENNE,3,45968,40442,39193,1249,3890,0,0,0,0,0,0,0,23454,0,0,11849,0,0,0
54,MEURTHE-ET-MOSELLE,1,65456,53270,51726,1544,11254,0,8965,0,0,0,23086,0,0,0,3353,5068,0,0,0
54,MEURTHE-ET-MOSELLE,2,64067,51517,49998,1519,8614,0,0,0,10040,0,23844,0,0,0,0,7500,0,0,0
54,MEURTHE-ET-MOSELLE,3,56307,46733,44363,2370,8223,0,0,0,10313,0,0,0,25827,0,0,0,0,0,0
54,MEURTHE-ET-MOSELLE,4,47069,40663,39512,1151,8457,0,0,0,5253,0,0,0,19977,0,0,5825,0,0,0
54,MEURTHE-ET-MOSELLE,5,39055,32308,31378,930,4361,0,0,0,7837,0,0,0,12733,0,2512,3935,0,0,0
54,MEURTHE-ET-MOSELLE,6,46578,41066,40520,546,16809,0,0,0,5477,830,0,0,17404,0,0,0,0,0,0
54,MEURTHE-ET-MOSELLE,7,47573,40357,39583,774,18515,0,0,0,3045,0,18023,0,0,0,0,0,0,0,0
55,MEUSE,1,66787,55761,53972,1789,8701,0,0,0,7419,0,0,0,24866,0,0,12986,0,0,0
55,MEUSE,2,51502,44633,43461,1172,7132,0,0,0,5120,0,0,0,23626,0,3112,4471,0,0,0
56,MORBIHAN,1,63328,54699,53978,721,5003,0,4414,0,0,0,0,0,39466,0,0,5095,0,0,0
56,MORBIHAN,2,51753,42816,42197,619,4568,0,0,0,4812,0,0,0,23392,0,0,9425,0,0,0
56,MORBIHAN,3,51306,45236,43321,1915,5711,0,0,0,7671,0,29939,0,0,0,0,0,0,0,0
56,MORBIHAN,4,41351,35846,35333,513,3567,0,0,0,2211,0,0,4954,18627,0,0,5974,0,0,0
56,MORBIHAN,5,65997,53204,52613,591,12387,0,0,0,11853,0,19719,0,0,0,0,8654,0,0,0
56,MORBIHAN,6,53989,45029,44692,337,9846,0,0,0,8151,0,6065,0,0,0,0,20630,0,0,0
57,MOSELLE,1,81295,66896,65350,1546,13355,0,7997,0,0,0,0,0,31439,0,0,10593,1966,0,0
57,MOSELLE,2,54388,44470,43390,1080,4091,0,0,0,3884,0,12602,0,0,0,0,20901,1912,0,0
57,MOSELLE,3,65875,55611,54086,1525,19539,0,10734,0,0,0,18010,0,0,0,1040,4055,708,0,0
57,MOSELLE,4,57532,47406,45976,1430,8175,0,0,0,3936,0,0,9018,17058,0,0,7789,0,0,0
57,MOSELLE,5,64718,55399,53493,1906,8876,0,0,0,5466,0,28959,0,0,0,0,10192,0,0,0
57,MOSELLE,6,55637,46596,45291,1305,7501,0,0,0,2433,0,14539,7459,0,0,8817,4542,0,0,0
57,MOSELLE,7,45094,41058,39995,1063,1585,0,0,0,1544,0,20815,0,0,0,0,16051,0,0,0
57,MOSELLE,8,54257,46522,45446,1076,1902,0,0,0,0,0,17121,0,0,0,20429,5994,0,0,0
58,NIEVRE,1,56399,46293,45493,800,9088,0,0,1775,18151,0,15236,0,0,0,1243,0,0,0,0
58,NIEVRE,2,53350,43329,42609,720,13825,0,0,0,8405,0,0,0,12759,0,0,7620,0,0,0
58,NIEVRE,3,44350,37218,36243,975,3840,0,0,0,20394,0,12009,0,0,0,0,0,0,0,0
59,NORD,1,45741,38273,37266,1007,5153,0,1724,0,4510,0,17415,0,0,0,4364,4100,0,0,0
59,NORD,2,53481,43088,41961,1127,7768,0,1441,0,10559,0,17597,0,0,0,986,3610,0,0,0
59,NORD,3,44248,36266,35348,918,6682,0,0,0,7229,0,17201,0,0,0,0,4236,0,0,0
59,NORD,4,41842,35174,34457,717,8006,0,0,0,8806,0,12464,0,0,0,2959,2222,0,0,0
59,NORD,5,57533,50061,49141,920,8531,0,0,0,19725,0,14493,3099,0,0,0,3293,0,0,0
59,NORD,6,54602,48464,47497,967,11388,0,0,0,14847,0,17861,0,0,0,0,3401,0,0,0
59,NORD,7,77099,66673,64977,1696,11603,0,0,0,17230,0,23211,5999,0,0,0,6934,0,0,0
59,NORD,8,63087,53788,52508,1280,9754,0,0,0,17644,0,20463,0,0,0,0,4647,0,0,0
59,NORD,9,70724,63344,61734,1610,11190,0,0,0,9512,0,33040,0,0,0,0,7992,0,0,0
59,NORD,10,68107,62125,60435,1690,13079,0,0,0,15035,0,0,0,0,32321,0,0,0,0,0
59,NORD,11,87969,73805,72787,1018,12136,0,0,0,31397,0,25658,0,0,0,0,2467,0,1129,0
59,NORD,12,40956,37208,36420,788,2214,0,0,0,9081,0,11667,0,0,0,4268,9190,0,0,0
59,NORD,13,46258,41444,40290,1154,5559,0,0,0,8598,0,18468,0,0,0,0,7665,0,0,0
59,NORD,14,69895,60561,59439,1122,23073,0,0,0,11774,0,19742,0,0,0,0,4850,0,0,0
59,NORD,15,58753,51419,50512,907,21982,0,0,0,7198,8517,12815,0,0,0,0,0,0,0,0
59,NORD,16,58932,50975,49846,1129,13051,0,0,0,18844,0,0,0,13449,0,0,4502,0,0,0
59,NORD,17,45444,39753,38801,952,11272,0,0,0,10901,0,13599,0,0,0,0,3029,0,0,0
59,NORD,18,53890,46146,45283,863,19857,0,0,0,6366,0,17169,0,0,0,0,1891,0,0,0
59,NORD,19,71428,60591,59458,1133,22657,0,0,0,19448,0,17353,0,0,0,0,0,0,0,0
59,NORD,20,71147,62544,61555,989,29782,0,0,0,12784,0,16269,0,0,0,0,2720,0,0,0
59,NORD,21,38778,33352,32748,604,8124,0,0,0,8739,0,14035,0,0,0,0,1850,0,0,0
59,NORD,22,52045,44634,43995,639,13984,0,0,0,16453,0,10925,0,0,0,0,2633,0,0,0
59,NORD,23,44820,39606,38896,710,13726,0,0,0,8882,0,13867,0,0,0,0,2421,0,0,0
60,OISE,1,51123,45704,44447,1257,8025,0,0,0,7957,0,23140,0,0,0,0,5325,0,0,0
60,OISE,2,57543,47915,46793,1122,10093,0,2511,0,5502,0,15914,0,0,0,0,12773,0,0,0
60,OISE,3,54061,46021,44940,1081,10328,0,0,0,17327,4051,7639,0,0,0,1752,3843,0,0,0
60,OISE,4,73280,60478,58947,1531,18223,0,0,0,10825,0,23770,0,0,0,1556,4573,0,0,0
60,OISE,5,48464,41924,40745,1179,9286,0,0,0,7381,0,20794,0,0,0,0,3284,0,0,0
61,ORNE,1,54394,45503,44008,1495,3411,0,0,0,5075,0,22349,0,0,0,0,13173,0,0,0
61,ORNE,2,51041,40748,39578,1170,2867,0,0,0,5626,0,12131,0,0,0,8656,10298,0,0,0
61,ORNE,3,61480,50288,48821,1467,5144,0,0,0,6180,0,0,0,18876,0,0,18621,0,0,0
62,PAS-DE-CALAIS,1,61445,53943,52819,1124,13816,0,0,0,16447,0,17833,0,0,0,0,4723,0,0,0
62,PAS-DE-CALAIS,2,53043,47095,46153,942,10001,0,0,0,13257,0,16501,0,0,0,2702,3692,0,0,0
62,PAS-DE-CALAIS,3,52170,46605,45746,859,14820,0,0,0,9753,0,17644,0,0,0,0,3529,0,0,0
62,PAS-DE-CALAIS,4,51840,44537,43619,918,6138,0,0,0,8451,7379,12179,0,0,0,5394,4078,0,0,0
62,PAS-DE-CALAIS,5,51881,44162,43437,725,12347,0,0,0,13943,0,13368,0,0,0,0,3779,0,0,0
62,PAS-DE-CALAIS,6,56786,49706,48940,766,6995,0,0,0,16108,0,22365,0,0,0,0,3472,0,0,0
62,PAS-DE-CALAIS,7,59661,49456,48180,1276,11341,0,1822,0,6257,0,22402,1184,0,0,0,5174,0,0,0
62,PAS-DE-CALAIS,8,58946,52730,52035,695,7901,0,0,0,19772,0,20500,0,0,0,0,3862,0,0,0
62,PAS-DE-CALAIS,9,55581,48657,47959,698,17038,0,0,0,9469,0,13004,0,0,0,0,8448,0,0,0
62,PAS-DE-CALAIS,10,50589,44010,43427,583,16095,0,0,0,15607,0,10149,0,0,0,0,1576,0,0,0
62,PAS-DE-CALAIS,11,53138,46918,46013,905,17333,0,0,0,13197,0,13195,0,0,0,0,2288,0,0,0
62,PAS-DE-CALAIS,12,53648,46790,46204,586,16330,0,0,0,20192,0,8180,0,0,0,0,1502,0,0,0
62,PAS-DE-CALAIS,13,45602,39782,39122,660,15187,0,0,0,15309,0,8626,0,0,0,0,0,0,0,0
62,PAS-DE-CALAIS,14,53781,46581,45895,686,13684,0,0,0,20542,0,9900,0,0,0,0,1769,0,0,0
63,PUY-DE-DOME,1,75723,60435,59283,1152,12940,0,0,0,21961,0,19110,0,0,0,0,5272,0,0,0
63,PUY-DE-DOME,2,63775,53372,52483,889,7904,0,0,0,11517,0,0,0,29695,0,0,3367,0,0,0
63,PUY-DE-DOME,3,49384,37896,37357,539,4913,0,1203,0,16562,0,0,0,11552,0,0,3127,0,0,0
63,PUY-DE-DOME,4,62750,46164,44115,2049,8113,0,0,0,16868,0,0,0,13474,0,0,5660,0,0,0
63,PUY-DE-DOME,5,64755,49768,49018,750,12889,0,0,447,11154,0,0,4573,13490,0,2748,3717,0,0,0
64,PYRENEES-ATLANTIQUES,1,99146,78394,77191,1203,7205,0,0,0,19054,0,24124,0,0,0,0,26808,0,0,0
64,PYRENEES-ATLANTIQUES,2,75317,60852,59532,1320,8630,0,3625,0,28917,0,0,0,15273,0,0,0,3087,0,0
64,PYRENEES-ATLANTIQUES,3,48124,40214,39720,494,1398,0,0,0,3432,0,19385,0,0,0,0,13626,0,0,1879
64,PYRENEES-ATLANTIQUES,4,87941,70007,68945,1062,8997,0,0,0,9090,0,25696,0,0,0,0,22006,0,0,3156
65,HAUTES-PYRENEES,1,68500,51935,50979,956,9712,0,0,0,21392,0,14336,0,0,0,0,5539,0,0,0
65,HAUTES-PYRENEES,2,71536,56754,55736,1018,11624,0,0,0,13381,0,21841,0,0,0,2352,6538,0,0,0
66,PYRENEES-ORIENTALES,1,86540,65878,63481,2397,19607,0,0,0,0,25731,13234,0,0,0,4909,0,0,0,0
66,PYRENEES-ORIENTALES,2,76338,56412,55046,1366,26731,0,0,0,0,7410,13858,0,0,0,0,7047,0,0,0
67,BAS-RHIN,1,54507,39010,38050,960,3259,0,0,0,5394,0,21300,0,0,0,0,8097,0,0,0
67,BAS-RHIN,2,67077,48416,47309,1107,5031,0,0,0,6667,0,27278,0,0,0,0,8333,0,0,0
67,BAS-RHIN,3,81204,61801,60036,1765,7183,0,0,0,7031,0,27069,0,0,0,4827,13926,0,0,0
67,BAS-RHIN,4,59104,50260,47723,2537,4529,0,0,0,0,0,23984,0,0,0,0,19210,0,0,0
67,BAS-RHIN,5,45413,38193,36586,1607,3728,0,0,0,0,0,0,0,0,19781,0,13077,0,0,0
67,BAS-RHIN,6,49199,40045,38668,1377,3268,0,0,0,0,0,24356,0,0,0,0,11044,0,0,0
67,BAS-RHIN,7,46773,39498,38338,1160,2160,0,0,0,0,0,25483,0,0,0,0,10695,0,0,0
67,BAS-RHIN,8,56989,48222,46584,1638,3898,0,0,0,0,0,26375,0,0,0,0,16311,0,0,0
68,HAUT-RHIN,1,67176,56313,53707,2606,3889,0,0,0,4762,0,28521,0,0,0,0,16535,0,0,0
68,HAUT-RHIN,2,56582,47807,45810,1997,4566,0,0,0,4147,0,26139,0,0,0,0,10958,0,0,0
68,HAUT-RHIN,3,69375,59426,57161,2265,4422,0,0,0,2995,0,27730,0,0,0,0,22014,0,0,0
68,HAUT-RHIN,4,76495,59070,57302,1768,4664,0,0,0,18124,0,23833,0,0,0,1969,8712,0,0,0
68,HAUT-RHIN,5,65541,52651,50579,2072,5712,0,0,0,4497,0,23504,0,0,0,0,16866,0,0,0
69,RHONE,1,63431,48627,46722,1905,10142,0,4908,0,5053,0,16601,0,0,0,1458,8560,0,0,0
69,RHONE,2,56251,42992,42088,904,7534,0,3432,0,7252,0,16121,0,0,0,0,7749,0,0,0
69,RHONE,3,49923,37223,36567,656,5290,0,2089,0,4444,0,13824,0,0,0,7934,2986,0,0,0
69,RHONE,4,66884,49876,49041,835,7534,0,0,0,9475,0,18303,0,0,0,6135,7594,0,0,0
69,RHONE,5,51811,38710,37917,793,6041,0,0,0,7489,0,13127,0,0,0,767,10493,0,0,0
69,RHONE,6,103339,88012,78203,9809,30441,0,0,0,25386,0,22376,0,0,0,0,0,0,0,0
69,RHONE,7,93073,73637,72033,1604,13878,0,12795,0,0,0,30041,0,0,0,0,13570,1749,0,0
69,RHONE,8,58241,47715,46397,1318,9422,0,0,0,7210,0,14944,0,0,0,0,12177,2644,0,0
69,RHONE,9,43144,35216,34248,968,4082,0,0,0,8326,0,0,0,0,13667,0,8173,0,0,0
69,RHONE,10,47477,35920,35045,875,5414,0,0,0,12883,0,0,0,11911,0,0,4837,0,0,0
69,RHONE,11,0,0,0,0,0,0,0,0,0,0,0,0,0,0,0,0,0,0,0
69,RHONE,12,0,0,0,0,0,0,0,0,0,0,0,0,0,0,0,0,0,0,0
69,RHONE,13,0,0,0,0,0,0,0,0,0,0,0,0,0,0,0,0,0,0,0
70,HAUTE-SAONE,1,64749,51779,50482,1297,6364,0,0,0,13782,0,0,0,23835,0,0,6501,0,0,0
70,HAUTE-SAONE,2,66866,57086,55634,1452,5957,0,0,0,24776,0,22642,0,0,0,0,2259,0,0,0
71,SAONE-ET-LOIRE,1,68642,49540,48273,1267,11433,0,0,0,16992,0,19848,0,0,0,0,0,0,0,0
71,SAONE-ET-LOIRE,2,70186,54247,53466,781,11034,0,0,0,25374,0,13545,0,0,0,0,3513,0,0,0
71,SAONE-ET-LOIRE,3,61913,49641,48454,1187,11781,0,0,0,16811,0,19862,0,0,0,0,0,0,0,0
71,SAONE-ET-LOIRE,4,61835,47358,46311,1047,10209,0,0,0,13156,0,22946,0,0,0,0,0,0,0,0
71,SAONE-ET-LOIRE,5,68320,49301,48117,1184,11193,0,0,0,16716,0,0,0,20208,0,0,0,0,0,0
72,SARTHE,1,52900,42524,41441,1083,8544,0,0,0,5347,0,13783,0,0,0,0,13767,0,0,0
72,SARTHE,2,61351,49009,47913,1096,21523,0,0,0,3408,7670,15312,0,0,0,0,0,0,0,0
72,SARTHE,3,52381,41398,40383,1015,7577,0,0,0,13787,0,10553,0,0,0,0,8466,0,0,0
72,SARTHE,4,54452,46479,45343,1136,10818,0,0,0,5925,0,25499,0,0,0,0,0,0,3101,0
72,SARTHE,5,43685,36519,35027,1492,6904,0,0,0,6702,0,0,0,21421,0,0,0,0,0,0
73,SAVOIE,1,58820,44554,43507,1047,7419,0,0,0,12262,0,0,3914,19912,0,0,0,0,0,0
73,SAVOIE,2,45305,34072,33683,389,8812,0,4290,0,0,0,6876,0,0,0,4433,9272,0,0,0
73,SAVOIE,3,56472,45896,45284,612,11222,0,5451,0,0,0,22983,0,0,0,0,5628,0,0,0
74,HAUTE-SAVOIE,1,85116,65281,63964,1317,9007,0,5145,0,4151,0,0,0,19895,0,0,25766,0,0,0
74,HAUTE-SAVOIE,2,47674,38686,38111,575,5704,0,0,0,5183,0,0,0,21209,0,0,6015,0,0,0
74,HAUTE-SAVOIE,3,70360,53875,53076,799,8184,0,0,0,12042,0,18770,0,0,0,2090,11990,0,0,0
75,PARIS,1,51923,39972,39286,686,7751,0,0,0,6427,0,15881,0,0,0,316,8911,0,0,0
75,PARIS,2,52922,40592,39790,802,9784,0,3175,531,3723,0,0,1806,14820,0,1916,4035,0,0,0
75,PARIS,3,55781,40057,39438,619,8139,0,6673,0,0,0,16678,0,0,0,999,6066,883,0,0
75,PARIS,4,45995,34671,34209,462,4273,0,2567,0,3309,0,15991,0,0,0,329,7740,0,0,0
75,PARIS,5,53407,43292,42899,393,3585,0,0,0,4118,0,17983,396,0,0,768,16049,0,0,0
75,PARIS,6,37468,29450,29100,350,2719,0,0,0,3070,0,12273,0,0,0,3415,7623,0,0,0
75,PARIS,7,50616,39491,38811,680,6308,0,0,0,6575,0,19399,0,0,0,0,6529,0,0,0
75,PARIS,8,65511,52539,51632,907,13241,0,3295,0,5302,0,23486,301,0,0,568,5439,0,0,0
75,PARIS,9,43339,35106,34466,640,9520,0,1842,0,4357,0,14819,259,0,0,0,3066,603,0,0
75,PARIS,10,57269,46367,45446,921,14399,0,3026,0,5180,0,17694,0,0,0,0,5147,0,0,0
75,PARIS,11,49957,41048,40365,683,7920,0,2518,0,4733,0,19020,0,0,0,988,5186,0,0,0
75,PARIS,12,44535,35621,34918,703,8902,0,0,0,5826,0,15220,0,0,0,0,4970,0,0,0
75,PARIS,13,40313,31917,31399,518,0,12865,2702,0,0,0,12887,0,0,0,0,2945,0,0,0
75,PARIS,14,49190,39620,38993,627,11925,0,6751,0,0,0,15265,1158,0,0,0,3894,0,0,0
75,PARIS,15,53735,42552,41954,598,7331,0,3470,0,5163,0,18082,0,0,0,1373,6535,0,0,0
75,PARIS,16,44222,35777,35126,651,9849,0,2180,0,4495,0,14613,0,0,0,0,3287,702,0,0
75,PARIS,17,54701,44011,43341,670,7968,0,2812,0,5834,0,19768,433,0,0,0,5410,1116,0,0
75,PARIS,18,40510,32483,31951,532,5213,0,0,0,6674,0,14892,0,0,0,5172,0,0,0,0
75,PARIS,19,48595,38902,38248,654,8891,0,2059,480,4557,0,16646,0,0,0,776,4839,0,0,0
75,PARIS,20,66470,50182,49358,824,5692,0,6534,0,0,0,24394,0,0,0,0,12738,0,0,0
75,PARIS,21,55735,41796,41313,483,3601,0,0,0,3781,0,18963,0,0,0,2607,12361,0,0,0
75,PARIS,22,39137,30846,30461,385,2675,0,0,0,3517,0,12105,0,0,0,1000,11164,0,0,0
75,PARIS,23,44199,34883,34358,525,4463,0,0,0,5157,0,15917,0,0,0,0,8821,0,0,0
75,PARIS,24,41691,33005,32424,581,7505,0,1822,0,3537,0,15308,0,0,0,206,3403,643,0,0
75,PARIS,25,52004,41582,40829,753,10124,0,0,0,7061,0,16738,1093,0,0,5813,0,0,0,0
75,PARIS,26,44044,34813,34172,641,8343,0,0,0,6060,0,14403,862,0,0,0,4504,0,0,0
75,PARIS,27,42280,33625,32948,677,11310,0,0,610,4730,0,13174,0,0,0,0,3124,0,0,0
75,PARIS,28,41226,33155,32567,588,10220,0,1945,0,3667,0,13600,0,0,0,445,2690,0,0,0
75,PARIS,29,39976,32148,31524,624,10711,0,0,0,4442,0,12407,0,0,0,0,3964,0,0,0
75,PARIS,30,43545,35156,34519,637,10872,0,1970,0,3936,0,12952,0,0,0,1718,3071,0,0,0
75,PARIS,31,63281,51191,50163,1028,16169,0,0,396,8333,0,20070,0,0,0,0,5195,0,0,0
76,SEINE-MARITIME,1,63294,48600,47244,1356,11006,0,3281,0,4798,0,18562,0,0,0,1089,7104,0,1404,0
76,SEINE-MARITIME,2,68681,56719,55594,1125,16688,0,0,0,20743,0,14728,0,0,0,0,3435,0,0,0
76,SEINE-MARITIME,3,68350,54875,53719,1156,20214,0,2556,0,9124,0,17801,0,0,0,0,4024,0,0,0
76,SEINE-MARITIME,4,65791,53950,52144,1806,15265,0,4231,0,0,15727,16921,0,0,0,0,0,0,0,0
76,SEINE-MARITIME,5,61738,52417,51255,1162,12119,0,4687,0,0,0,0,0,25713,0,0,8736,0,0,0
76,SEINE-MARITIME,6,82262,66995,65600,1395,19681,0,3943,0,4827,0,25910,0,0,0,6066,5173,0,0,0
76,SEINE-MARITIME,7,57056,49057,47826,1231,26259,0,0,0,5154,0,13409,0,0,0,0,3004,0,0,0
76,SEINE-MARITIME,8,50316,41563,40339,1224,6364,0,0,0,9489,0,18665,0,0,0,0,5821,0,0,0
76,SEINE-MARITIME,9,56624,47204,46198,1006,13443,0,0,0,12787,0,14362,1427,0,0,0,4179,0,0,0
76,SEINE-MARITIME,10,47559,38586,37505,1081,4868,0,0,0,9960,0,16330,0,0,0,0,6347,0,0,0
77,SEINE-ET-MARNE,1,78438,63802,62393,1409,13328,0,0,0,10642,0,28016,0,0,0,0,10407,0,0,0
77,SEINE-ET-MARNE,2,72773,59584,58324,1260,17826,0,0,0,8551,0,24050,0,0,0,2590,5307,0,0,0
77,SEINE-ET-MARNE,3,62983,50590,49320,1270,9897,0,0,0,7782,0,23826,0,0,0,0,6156,1659,0,0
77,SEINE-ET-MARNE,4,54821,46756,45634,1122,9526,0,0,0,6873,0,26699,0,0,0,0,0,2536,0,0
77,SEINE-ET-MARNE,5,59178,48118,46985,1133,7751,0,0,0,8216,0,15513,0,0,0,0,15505,0,0,0
78,YVELINES,1,56351,45845,44902,943,15581,0,0,0,5032,0,15783,3682,0,0,0,4824,0,0,0
78,YVELINES,2,64437,52841,51895,946,9279,0,0,0,8640,0,22279,0,0,0,0,9856,0,1841,0
78,YVELINES,3,74770,60694,59345,1349,15016,0,0,0,13502,0,22589,0,0,0,0,6368,1870,0,0
78,YVELINES,4,42170,34969,34410,559,7381,0,5626,0,0,0,13301,0,0,0,0,6652,0,1450,0
78,YVELINES,5,45382,36951,36462,489,9925,0,3415,0,0,0,0,349,12164,0,1163,9446,0,0,0
78,YVELINES,6,43435,35228,34737,491,7499,0,0,0,5129,0,16394,0,0,0,400,4463,0,852,0
78,YVELINES,7,52989,44856,43804,1052,12402,0,0,0,5792,0,14021,0,0,0,1228,10361,0,0,0
78,YVELINES,8,51338,43389,42523,866,10641,0,0,0,18745,0,13137,0,0,0,0,0,0,0,0
79,DEUX-SEVRES,1,77860,59912,58544,1368,8066,0,0,0,18398,0,0,0,0,26656,0,5424,0,0,0
79,DEUX-SEVRES,2,65814,53446,51916,1530,5724,0,0,0,9235,0,12926,0,0,0,0,24031,0,0,0
79,DEUX-SEVRES,3,54806,47284,45797,1487,3862,0,0,0,8016,0,23186,0,0,0,0,10733,0,0,0
80,SOMME,1,74146,63777,62179,1598,24790,0,0,0,7742,0,24386,0,0,0,0,5261,0,0,0
80,SOMME,2,53126,45843,44505,1338,11786,0,1672,0,7545,578,18329,0,0,0,0,4595,0,0,0
80,SOMME,3,56737,50136,48718,1418,20246,0,0,0,9344,0,0,0,19128,0,0,0,0,0,0
80,SOMME,4,54495,47809,46601,1208,10327,0,0,0,22473,0,13801,0,0,0,0,0,0,0,0
80,SOMME,5,59239,51843,50569,1274,13809,0,3391,0,5752,0,23631,0,0,0,0,3986,0,0,0
81,TARN,1,73485,62302,60319,1983,10853,0,0,0,22005,15528,11933,0,0,0,0,0,0,0,0
81,TARN,2,69057,59022,56827,2195,8340,0,0,0,15445,0,23726,0,0,0,1325,7991,0,0,0
81,TARN,3,66003,56459,54662,1797,8061,0,0,0,21266,0,8776,0,0,0,0,16559,0,0,0
82,TARN-ET-GARONNE,1,54374,45520,44233,1287,5950,0,0,0,15808,0,14777,1194,0,0,521,5983,0,0,0
82,TARN-ET-GARONNE,2,57489,47466,45814,1652,7433,0,0,0,19896,0,16184,0,0,0,0,0,0,2301,0
83,VAR,1,71230,56856,55039,1817,13970,0,0,0,20833,0,16039,0,0,0,4197,0,0,0,0
83,VAR,2,78639,61039,59480,1559,12106,0,0,0,14190,0,24253,0,0,0,0,8931,0,0,0
83,VAR,3,74170,54887,53961,926,12676,0,0,0,6213,0,16938,0,0,0,0,7637,0,10497,0
83,VAR,4,94240,72513,71056,1457,24156,0,0,0,7369,0,24044,0,0,0,11563,3924,0,0,0
84,VAUCLUSE,1,74348,60305,58535,1770,12789,0,0,0,24027,0,15433,0,0,0,0,6286,0,0,0
84,VAUCLUSE,2,61627,50680,49291,1389,8662,0,0,0,13724,10612,16293,0,0,0,0,0,0,0,0
84,VAUCLUSE,3,61146,50424,48928,1496,14318,0,0,0,8741,4667,17671,0,0,0,0,3531,0,0,0
85,VENDEE,1,59724,51796,50327,1469,4315,0,0,0,5354,0,0,0,22352,0,0,18306,0,0,0
85,VENDEE,2,61983,50350,48935,1415,6491,0,0,0,11634,0,23681,0,0,0,0,7129,0,0,0
85,VENDEE,3,70178,57361,55522,1839,5710,0,0,0,3719,0,16450,0,0,0,15040,14603,0,0,0
85,VENDEE,4,62154,55809,54122,1687,4325,0,0,0,0,0,33982,0,0,0,0,15815,0,0,0
86,VIENNE,1,75045,60565,59180,1385,8791,0,0,0,10541,0,26012,0,0,0,0,13836,0,0,0
86,VIENNE,2,63006,49925,48266,1659,14424,0,0,0,0,0,9772,0,0,0,0,24070,0,0,0
86,VIENNE,3,66444,55146,53064,2082,14577,0,0,0,0,0,26750,0,0,0,0,11737,0,0,0
87,HAUTE-VIENNE,1,79697,64585,62677,1908,19999,0,0,0,21879,0,18639,2160,0,0,0,0,0,0,0
87,HAUTE-VIENNE,2,64968,52626,51050,1576,21233,0,0,0,13008,0,14928,0,0,0,0,1881,0,0,0
87,HAUTE-VIENNE,3,82257,66370,64886,1484,20826,0,0,0,21513,0,19552,0,0,0,0,2995,0,0,0
88,VOSGES,1,68899,56000,54081,1919,7634,0,0,0,14068,0,25343,0,0,0,0,7036,0,0,0
88,VOSGES,2,52206,41298,40192,1106,7370,0,11235,0,0,0,18620,0,0,0,0,2967,0,0,0
88,VOSGES,3,50966,43775,42055,1720,6515,0,0,0,7035,0,28505,0,0,0,0,0,0,0,0
88,VOSGES,4,53687,45107,43597,1510,5206,0,0,0,5461,0,0,0,26500,0,0,6430,0,0,0
89,YONNE,1,53876,42057,40940,1117,9026,0,0,0,8454,0,0,0,12664,0,9207,1589,0,0,0
89,YONNE,2,51667,43307,41954,1353,8472,0,0,0,8398,0,0,0,25084,0,0,0,0,0,0
89,YONNE,3,65480,52845,51442,1403,13563,0,0,0,7520,0,21391,0,0,0,0,8968,0,0,0
90,TERRITOIRE DE BELFORT,1,37055,28822,28168,654,4197,0,0,0,9693,0,11332,0,0,0,0,2132,0,814,0
90,TERRITOIRE DE BELFORT,2,26973,21342,20896,446,2631,0,0,0,6861,0,10135,0,0,0,0,1269,0,0,0
91,ESSONNE,1,75454,64632,63470,1162,23517,0,0,0,8160,0,25973,0,0,0,0,5820,0,0,0
91,ESSONNE,2,78344,66269,64899,1370,21062,0,0,0,6740,0,26012,0,0,0,947,6470,0,3668,0
91,ESSONNE,3,113940,94892,93330,1562,29012,0,0,0,12263,23750,28305,0,0,0,0,0,0,0,0
91,ESSONNE,4,59661,49872,48777,1095,15929,0,5803,0,0,0,16855,0,0,0,0,10190,0,0,0
92,HAUTS-DE-SEINE,1,28270,24148,23618,530,14577,0,0,0,2319,0,6722,0,0,0,0,0,0,0,0
92,HAUTS-DE-SEINE,2,47726,39313,38606,707,9202,0,0,0,6269,0,17431,0,0,0,0,4599,0,1105,0
92,HAUTS-DE-SEINE,3,64885,53671,52856,815,17952,0,5988,0,0,0,22284,0,0,0,0,5585,0,1047,0
92,HAUTS-DE-SEINE,4,67412,56510,55670,840,21134,0,0,0,9775,706,19772,0,0,0,0,4283,0,0,0
92,HAUTS-DE-SEINE,5,52052,42778,41784,994,11043,0,2375,0,4554,0,0,3346,14938,0,0,5528,0,0,0
92,HAUTS-DE-SEINE,6,63823,51871,51118,753,8612,0,0,0,8055,0,23131,0,0,0,4153,7167,0,0,0
92,HAUTS-DE-SEINE,7,59566,48887,48096,791,21864,0,2003,0,4866,0,15777,0,0,0,0,3586,0,0,0
92,HAUTS-DE-SEINE,8,54734,44281,43625,656,9958,0,0,0,7265,0,18789,0,0,0,0,7613,0,0,0
92,HAUTS-DE-SEINE,9,55999,45111,44232,879,9886,0,0,0,9464,0,18009,0,0,0,0,6873,0,0,0
92,HAUTS-DE-SEINE,10,63438,50814,50176,638,11826,0,0,0,7944,4511,18041,0,0,0,1483,6371,0,0,0
92,HAUTS-DE-SEINE,11,67524,56898,55893,1005,21128,0,3462,0,5158,0,13789,6932,0,0,0,5424,0,0,0
92,HAUTS-DE-SEINE,12,92760,77822,76588,1234,23766,0,11968,0,0,0,25354,995,0,0,1612,12893,0,0,0
92,HAUTS-DE-SEINE,13,88790,73330,71968,1362,19426,0,3230,0,7375,6915,23078,0,0,0,0,11944,0,0,0
93,SEINE-SAINT-DENIS,1,65546,54197,53220,977,25526,0,1956,277,5212,0,17041,0,0,0,0,3208,0,0,0
93,SEINE-SAINT-DENIS,2,45393,38640,37849,791,21085,0,0,407,3499,0,10020,0,0,0,0,2838,0,0,0
93,SEINE-SAINT-DENIS,3,66976,56335,55009,1326,31601,0,0,0,4389,0,15226,0,0,0,0,2554,1239,0,0
93,SEINE-SAINT-DENIS,4,62879,53448,52455,993,29833,0,2089,0,2902,0,14728,0,0,0,0,2903,0,0,0
93,SEINE-SAINT-DENIS,5,84476,71037,69537,1500,22266,0,0,0,14533,0,27299,0,0,0,0,5439,0,0,0
93,SEINE-SAINT-DENIS,6,65118,53117,52045,1072,25028,0,0,0,6007,0,17209,0,0,0,0,3801,0,0,0
93,SEINE-SAINT-DENIS,7,70142,56448,55124,1324,24568,0,1905,0,4629,0,18966,0,0,0,0,3855,0,1201,0
93,SEINE-SAINT-DENIS,8,74691,62649,61336,1313,27692,0,0,0,6877,0,0,0,21087,0,0,5680,0,0,0
93,SEINE-SAINT-DENIS,9,93108,76718,75197,1521,22635,0,0,0,13768,0,30922,0,0,0,0,6160,0,1712,0
94,VAL-DE-MARNE,1,72902,61614,60057,1557,28864,0,3053,0,4644,0,18110,0,0,0,443,4943,0,0,0
94,VAL-DE-MARNE,2,76997,63716,62725,991,26114,0,3359,0,5549,0,21896,0,0,0,0,4412,0,1395,0
94,VAL-DE-MARNE,3,69693,58871,57900,971,32420,0,2356,0,4209,0,15378,0,0,0,0,3537,0,0,0
94,VAL-DE-MARNE,4,70597,57767,56709,1058,17322,0,3430,0,6292,0,0,0,23154,0,2104,4407,0,0,0
94,VAL-DE-MARNE,5,80235,65132,63913,1219,16036,0,0,0,7578,0,27781,1378,0,0,0,9542,0,1598,0
94,VAL-DE-MARNE,6,72265,60502,59360,1142,17604,0,0,0,7682,0,28575,0,0,0,0,5499,0,0,0
94,VAL-DE-MARNE,7,69612,58199,57226,973,12429,0,0,0,7630,0,23775,0,0,0,5231,6937,0,1224,0
94,VAL-DE-MARNE,8,78079,64759,63754,1005,20571,0,0,0,9973,0,22101,0,0,0,0,11109,0,0,0
95,VAL-D'OISE,1,65613,54358,53028,1330,15150,0,0,0,8241,0,17973,5432,0,0,0,6232,0,0,0
95,VAL-D'OISE,2,52360,43157,42368,789,13381,0,0,0,6100,0,16389,0,0,0,0,6498,0,0,0
95,VAL-D'OISE,3,56961,47228,46203,1025,26612,0,0,0,5720,0,13871,0,0,0,0,0,0,0,0
95,VAL-D'OISE,4,80980,66947,65821,1126,13006,0,3968,0,12467,0,27790,0,0,0,0,8590,0,0,0
95,VAL-D'OISE,5,90459,74923,73391,1532,25200,0,0,0,13768,0,25212,0,0,0,0,5755,0,3456,0