,,,,,,,,,"citation : Résultats des élections législatives françaises premier tour du 04/03/1973 par circonscription, cdsp_legi1973t1_circ.xls [fichier informatique], Banque de Données Socio-Politiques, Grenoble [producteur], Centre de Données Socio-politiques [diffuseur], février 2009.",,,,,,,,,,,,,,,,,
RESULTATS ELECTIONS LEGISLATIVES premier tour du 04-03-1973,,,,,,,,,473 circonscriptions,,,,,,,,,,,,,,,,,
,,,,,,,,,,,,,,,,,,,,,,,,,,
,,,,,,,,,,,,,,,,,,,,,,,,,,
Code département,département,circonscription,Inscrits,Votants,Exprimés,Blancs et nuls,Parti communiste,Parti Socialiste Unifié,Lutte Ouvrière,Ligue Communiste Révolutionaire,Organisation Communiste Révolutionaire,Parti Socialiste ,Mouvement des Radicaux de Gauche,Divers gauche,Radicaux réformateurs,Divers réformateurs,Divers droite,Union Des Démocrates pour la Vème République-Union des Républicains de Progrès,Républicains Indépendants-Union des Républicains de Progrès,Centre Démocrate-Union des Républicains de Progrès,Divers Union des Républicains de Progrès,Union des Démocrates pour la Vème République,Républicains Indépendants,Centre Démocratie et Progrès,Divers gaullistes,Extrême droite
,,,,,,,COM,PSU,LO,LCR,OCI,SOC,MRG,DVG,REFRAD,DIVREF,DVD,UDRURP,RIURP,CDPURP,DIVURP,UDR,RI,CDP,DIVGAULL,EXD
01,AIN,1,73349,53670,52710,960,7901,1939,0,0,0,8071,0,0,8532,0,914,0,0,16860,0,8493,0,0,0,0
01,AIN,2,74850,58217,57209,1008,11229,1756,0,0,0,9969,0,0,4828,0,967,0,27768,0,0,0,0,0,0,692
01,AIN,3,63658,49697,48657,1040,7093,1843,0,0,0,0,10634,0,0,5045,4454,0,17791,0,0,0,0,1797,0,0
02,AISNE,1,55546,47610,46660,950,10291,0,0,0,0,11513,0,0,0,6747,955,17154,0,0,0,0,0,0,0,0
02,AISNE,2,71922,61475,59927,1548,18710,1640,0,0,0,10526,0,0,0,4910,11184,12957,0,0,0,0,0,0,0,0
02,AISNE,3,48025,41097,40249,848,8964,0,0,0,0,15511,0,0,0,4434,1024,8377,0,0,0,0,0,0,1939,0
02,AISNE,4,55807,47859,46817,1042,13473,1334,0,0,0,10255,0,0,0,6060,1193,14502,0,0,0,0,0,0,0,0
02,AISNE,5,73204,61420,60425,995,17827,0,0,0,0,8493,0,0,0,24650,0,9455,0,0,0,0,0,0,0,0
03,ALLIER,1,55892,44675,43605,1070,11300,0,1079,0,0,10031,0,0,3576,0,0,17619,0,0,0,0,0,0,0,0
03,ALLIER,2,64639,53121,52160,961,18885,0,1263,0,0,7696,0,0,0,0,17703,0,6613,0,0,0,0,0,0,0
03,ALLIER,3,54749,44139,43190,949,15988,0,1377,0,0,7554,0,0,0,0,5859,12412,0,0,0,0,0,0,0,0
03,ALLIER,4,68369,54628,53427,1201,12165,0,0,0,0,6175,0,0,23912,0,0,11175,0,0,0,0,0,0,0,0
04,ALPES-DE-HAUTE-PROVENCE,1,33785,27389,26679,710,7207,0,0,0,0,0,8049,0,0,2526,0,8897,0,0,0,0,0,0,0,0
04,ALPES-DE-HAUTE-PROVENCE,2,35815,29503,28919,584,7957,0,614,0,0,8677,0,0,0,1799,732,9140,0,0,0,0,0,0,0,0
05,HAUTES-ALPES,1,34341,27947,27331,616,5276,0,533,0,0,0,6984,0,0,2555,0,0,0,11983,0,0,0,0,0,0
05,HAUTES-ALPES,2,27775,21419,20876,543,5043,0,0,0,0,2938,0,0,0,3220,0,0,9675,0,0,0,0,0,0,0
06,ALPES-MARITIMES,1,57759,47875,46441,1434,17059,0,539,0,0,3949,0,0,6348,0,1891,8736,0,0,0,0,5415,0,1251,1253
06,ALPES-MARITIMES,2,72286,59587,58362,1225,10053,0,0,1620,0,8190,0,0,0,20378,0,0,15949,0,0,0,0,0,0,2172
06,ALPES-MARITIMES,3,78755,63544,61989,1555,17015,0,0,0,0,10588,0,0,0,12838,1352,0,20196,0,0,0,0,0,0,0
06,ALPES-MARITIMES,4,69098,56223,54807,1416,18801,0,0,0,0,5393,0,0,0,10664,1073,18876,0,0,0,0,0,0,0,0
06,ALPES-MARITIMES,5,86691,70828,69429,1399,14354,3120,0,0,0,0,0,20548,0,9481,0,19687,0,0,0,0,0,0,0,2239
06,ALPES-MARITIMES,6,97421,77582,75750,1832,16917,0,0,0,0,11831,0,0,0,9174,1317,21051,0,0,0,0,0,13279,0,2181
07,ARDECHE,1,58592,47553,46690,863,12426,1419,0,0,0,9265,0,0,4039,0,1527,18014,0,0,0,0,0,0,0,0
07,ARDECHE,2,59810,48926,47899,1027,7169,0,0,0,0,11104,0,0,0,5719,0,23907,0,0,0,0,0,0,0,0
07,ARDECHE,3,51465,40110,39464,646,8272,0,0,0,0,6426,0,0,0,3012,0,12241,0,0,0,0,0,8933,0,580
08,ARDENNES,1,55323,44425,43364,1061,10802,0,0,0,0,8496,0,0,0,4102,3032,10927,6005,0,0,0,0,0,0,0
08,ARDENNES,2,59846,48148,47188,960,12497,1430,0,0,0,13921,0,0,0,4620,1365,13355,0,0,0,0,0,0,0,0
08,ARDENNES,3,52967,43533,42680,853,7722,0,0,2409,0,10205,0,0,0,5370,0,16974,0,0,0,0,0,0,0,0
09,ARIEGE,1,46308,37035,36113,922,8350,0,0,0,0,15718,0,0,2536,0,1489,8020,0,0,0,0,0,0,0,0
09,ARIEGE,2,50064,39054,38234,820,7549,0,913,0,0,15853,0,0,2338,0,0,10430,0,0,0,0,1151,0,0,0
10,AUBE,1,45502,37441,36586,855,6739,0,923,0,0,8501,0,0,1207,0,9118,10098,0,0,0,0,0,0,0,0
10,AUBE,2,54357,44976,44171,805,5845,0,0,1411,0,12990,0,0,2488,0,482,20955,0,0,0,0,0,0,0,0
10,AUBE,3,61076,49777,48713,1064,12579,0,1465,0,0,10752,0,0,0,4961,0,18956,0,0,0,0,0,0,0,0
11,AUDE,1,60235,49863,48510,1353,14785,0,0,727,0,16651,0,0,0,3443,0,0,12904,0,0,0,0,0,0,0
11,AUDE,2,66881,54905,53399,1506,13586,1188,0,886,0,19582,0,0,0,0,0,14874,0,0,0,0,3283,0,0,0
11,AUDE,3,53741,45886,44828,1058,7623,0,0,0,0,16326,0,0,0,2166,0,18713,0,0,0,0,0,0,0,0
12,AVEYRON,1,64720,53155,51891,1264,4162,0,0,0,0,7084,0,0,0,20709,82,3593,0,0,0,0,16261,0,0,0
12,AVEYRON,2,59226,49351,48495,856,5565,0,0,0,0,0,20874,0,1966,0,2502,0,17588,0,0,0,0,0,0,0
12,AVEYRON,3,65737,53946,52043,1903,5279,0,0,0,0,11509,0,0,0,12283,5906,17066,0,0,0,0,0,0,0,0
13,BOUCHES-DU-RHONE,1,46576,30930,30362,568,4931,0,0,0,0,7563,0,0,0,3641,1922,11532,0,0,0,0,0,0,0,773
13,BOUCHES-DU-RHONE,2,89000,64473,63438,1035,12382,0,0,0,0,18008,0,0,0,9874,3244,18250,0,0,0,0,0,0,0,1680
13,BOUCHES-DU-RHONE,3,56965,38971,38218,753,9288,0,0,668,0,13789,0,0,0,2938,1871,8840,0,0,0,0,0,0,0,824
13,BOUCHES-DU-RHONE,4,68904,50420,49503,917,26188,0,884,0,0,9751,0,0,2745,0,1315,7694,0,0,0,0,0,0,0,926
13,BOUCHES-DU-RHONE,5,57816,41662,40879,783,12742,0,556,0,0,10309,0,0,3748,0,2075,0,10115,0,0,0,0,0,0,1334
13,BOUCHES-DU-RHONE,6,71617,56978,55644,1334,25234,0,0,624,0,10877,0,0,0,4377,2622,0,10758,0,0,0,0,0,0,1152
13,BOUCHES-DU-RHONE,7,49724,35243,34407,836,14196,0,0,0,0,0,7881,0,3385,0,0,7393,0,0,0,0,0,0,0,1552
13,BOUCHES-DU-RHONE,8,88308,67143,65965,1178,18300,0,1046,0,0,20846,0,0,0,7923,0,16349,0,0,0,0,0,0,0,1501
13,BOUCHES-DU-RHONE,9,91692,73102,71202,1900,14001,0,0,1572,0,26528,0,0,13834,0,0,0,0,15267,0,0,0,0,0,0
13,BOUCHES-DU-RHONE,10,124276,100525,98146,2379,38859,0,0,0,0,23498,0,0,0,0,0,0,0,0,20605,0,0,0,12711,2473
13,BOUCHES-DU-RHONE,11,80903,67024,65402,1622,24834,0,0,0,0,17671,0,0,0,9594,0,0,0,0,13303,0,0,0,0,0
14,CALVADOS,1,105871,84685,82804,1881,12442,4593,0,2806,0,18229,0,0,12908,0,0,30096,0,0,0,0,0,0,0,1730
14,CALVADOS,2,52088,43054,42085,969,6159,0,0,0,0,11414,0,0,0,5673,0,18129,0,0,0,0,0,0,0,710
14,CALVADOS,3,59754,49681,48787,894,13437,0,0,0,0,6299,0,0,0,6639,0,0,22412,0,0,0,0,0,0,0
14,CALVADOS,4,45625,37024,36289,735,4339,0,0,0,0,4680,0,0,0,4982,9664,12624,0,0,0,0,0,0,0,0
14,CALVADOS,5,49811,42604,41777,827,3218,0,0,0,0,5688,0,0,0,4765,0,28106,0,0,0,0,0,0,0,0
15,CANTAL,1,59412,45976,45050,926,9532,0,0,0,0,5913,0,0,0,6307,2699,20599,0,0,0,0,0,0,0,0
15,CANTAL,2,52591,39445,38077,1368,5712,0,0,0,0,7052,0,0,0,0,0,25313,0,0,0,0,0,0,0,0
16,CHARENTE,1,83402,66772,65420,1352,11556,0,1799,0,0,14967,0,0,0,4223,0,14440,0,0,0,0,0,0,18435,0
16,CHARENTE,2,60821,47859,46303,1556,8338,3009,0,0,0,0,6316,0,10918,0,2471,15251,0,0,0,0,0,0,0,0
16,CHARENTE,3,65215,53246,51606,1640,16266,0,0,0,0,7406,0,0,0,4881,1838,20623,0,0,0,0,0,0,0,592
17,CHARENTE-MARITIME,1,76161,58038,56880,1158,11853,0,0,775,0,0,21008,0,0,0,10793,0,0,12451,0,0,0,0,0,0
17,CHARENTE-MARITIME,2,44473,34222,33454,768,6605,0,1207,0,0,5398,0,0,0,7657,0,12587,0,0,0,0,0,0,0,0
17,CHARENTE-MARITIME,3,46581,35496,34616,880,5864,0,0,0,0,6087,0,1260,0,3706,0,0,0,17699,0,0,0,0,0,0
17,CHARENTE-MARITIME,4,69961,53648,52053,1595,9433,2676,0,0,0,7574,0,2616,0,9420,0,0,20334,0,0,0,0,0,0,0
17,CHARENTE-MARITIME,5,70392,54756,53299,1457,11076,0,0,0,0,4520,0,7621,6306,0,0,23776,0,0,0,0,0,0,0,0
18,CHER,1,68727,56932,54819,2113,14157,1594,1790,0,0,6579,0,0,0,6977,5371,0,18351,0,0,0,0,0,0,0
18,CHER,2,65941,54809,53656,1153,18526,0,1741,0,0,4384,0,0,0,5427,5343,17185,0,0,0,0,0,0,1050,0
18,CHER,3,56653,45531,44486,1045,15649,0,1405,0,0,4229,0,0,0,3935,1739,17529,0,0,0,0,0,0,0,0
19,CORREZE,1,55360,45637,44995,642,14409,599,458,0,0,5739,0,0,0,13541,0,0,0,10249,0,0,0,0,0,0
19,CORREZE,2,65273,56293,55276,1017,13108,0,1129,0,0,11184,0,0,3815,0,0,26040,0,0,0,0,0,0,0,0
19,CORREZE,3,44983,38686,38020,666,10580,798,0,0,0,6577,0,0,0,0,398,19667,0,0,0,0,0,0,0,0
20,CORSE,1,64096,40719,40295,424,4688,0,0,238,0,0,9998,0,11340,0,1487,12544,0,0,0,0,0,0,0,0
20,CORSE,2,54233,38730,38219,511,8046,0,0,0,0,0,11197,0,2004,0,22,16950,0,0,0,0,0,0,0,0
20,CORSE,3,63834,39995,39548,447,4363,0,0,0,0,11321,0,0,0,0,3132,20732,0,0,0,0,0,0,0,0
21,COTE-D'OR,1,78110,61738,60604,1134,9666,0,624,0,1588,14174,0,0,7097,0,0,27455,0,0,0,0,0,0,0,0
21,COTE-D'OR,2,69323,54056,53054,1002,7313,1799,0,1018,0,12960,0,0,0,6935,0,23029,0,0,0,0,0,0,0,0
21,COTE-D'OR,3,51904,40669,39918,751,5441,0,0,0,0,0,10916,0,0,5090,0,18471,0,0,0,0,0,0,0,0
21,COTE-D'OR,4,49002,39966,39319,647,9760,990,0,0,0,0,5219,0,0,4329,0,0,19021,0,0,0,0,0,0,0
22,COTES-D'ARMOR,1,87826,73941,72130,1811,15841,19017,0,465,0,3792,0,0,0,0,2274,0,0,0,30741,0,0,0,0,0
22,COTES-D'ARMOR,2,64343,54518,53213,1305,8666,0,0,0,0,15607,0,0,2602,0,1365,0,0,24973,0,0,0,0,0,0
22,COTES-D'ARMOR,3,57412,49572,48748,824,10485,5739,0,0,0,4861,0,0,0,1896,797,24970,0,0,0,0,0,0,0,0
22,COTES-D'ARMOR,4,60370,51066,50488,578,18781,2958,0,0,0,3758,0,0,2199,0,0,0,0,22792,0,0,0,0,0,0
22,COTES-D'ARMOR,5,71163,59253,58419,834,15817,2888,1450,0,0,8273,0,0,0,4433,0,0,0,25558,0,0,0,0,0,0
23,CREUSE,1,51658,39103,38357,746,8781,0,0,0,0,10195,0,0,0,1996,1043,15496,0,0,0,0,0,0,0,846
23,CREUSE,2,57577,42441,41607,834,12403,0,0,0,0,15570,0,0,0,1829,0,0,10721,0,0,0,0,0,0,1084
24,DORDOGNE,1,68406,59429,58292,1137,15902,0,1049,0,0,0,11238,0,0,3903,0,26200,0,0,0,0,0,0,0,0
24,DORDOGNE,2,63041,52202,50985,1217,8802,1146,0,0,0,14423,0,0,6763,0,2972,6548,0,0,0,0,9129,0,1202,0
24,DORDOGNE,3,64720,54685,53268,1417,14126,0,0,0,0,0,16752,0,4680,0,0,17710,0,0,0,0,0,0,0,0
24,DORDOGNE,4,64053,53710,52394,1316,13744,1516,0,0,0,12757,0,0,5655,0,0,18722,0,0,0,0,0,0,0,0
25,DOUBS,1,90455,71576,70156,1420,8919,3321,1260,0,0,17638,0,0,0,10254,0,28764,0,0,0,0,0,0,0,0
25,DOUBS,2,93684,75134,73288,1846,14016,2876,2397,0,0,29401,0,0,0,0,0,0,0,24598,0,0,0,0,0,0
25,DOUBS,3,57477,47515,46362,1153,3860,0,0,0,0,8940,0,0,0,5721,1496,26345,0,0,0,0,0,0,0,0
26,DROME,1,76981,67802,59571,8231,14564,0,1437,0,0,14012,0,10,0,9464,0,20084,0,0,0,0,0,0,0,0
26,DROME,2,65062,52136,51057,1079,8778,1396,0,0,0,16559,0,0,6202,0,0,11375,0,0,0,0,3489,3258,0,0
26,DROME,3,69642,55653,54579,1074,8017,0,0,0,0,18199,0,0,0,4873,0,0,14138,0,0,0,0,0,9352,0
27,EURE,1,72020,59482,58183,1299,12592,1659,947,0,0,10931,0,0,0,7168,1315,0,23566,0,0,0,0,0,5,0
27,EURE,2,50344,41375,40084,1291,5896,1810,0,0,0,7436,0,0,0,8800,0,8416,0,0,0,0,7726,0,0,0
27,EURE,3,57106,47910,46833,1077,9585,1145,1170,0,0,8211,0,0,0,12904,0,10670,0,0,0,0,3148,0,0,0
27,EURE,4,58212,50741,49554,1187,9885,1306,0,1179,0,6299,0,0,0,6433,572,23117,0,0,0,0,0,0,0,763
28,EURE-ET-LOIR,1,66448,56029,54447,1582,8495,0,2202,0,0,9840,0,0,13491,0,0,0,20419,0,0,0,0,0,0,0
28,EURE-ET-LOIR,2,65138,53888,52569,1319,8149,0,0,897,0,13814,0,2136,0,7168,2480,17925,0,0,0,0,0,0,0,0
28,EURE-ET-LOIR,3,60532,49896,48607,1289,8881,0,0,0,0,0,7622,8729,0,6193,1882,15300,0,0,0,0,0,0,0,0
29,FINISTERE,1,69251,56984,56152,832,11993,1833,984,0,0,9372,0,0,0,9018,4216,18736,0,0,0,0,0,0,0,0
29,FINISTERE,2,91484,70928,70211,717,11299,2405,0,355,0,13131,0,1769,0,12233,605,20276,0,0,0,0,5873,0,0,2265
29,FINISTERE,3,64760,55317,54799,518,3392,0,0,0,0,5722,0,1621,0,8422,1697,33945,0,0,0,0,0,0,0,0
29,FINISTERE,4,56922,48018,47562,456,7968,5381,0,0,0,11112,0,0,0,2783,611,19707,0,0,0,0,0,0,0,0
29,FINISTERE,5,58412,49851,49301,550,3091,0,0,0,0,7631,0,0,0,14113,0,24466,0,0,0,0,0,0,0,0
29,FINISTERE,6,58554,47544,46953,591,10270,0,0,0,0,9518,0,0,0,0,6436,20729,0,0,0,0,0,0,0,0
29,FINISTERE,7,52961,42709,42070,639,8824,0,0,0,0,8712,0,0,0,8411,0,16117,0,0,0,0,0,6,0,0
29,FINISTERE,8,62334,50906,50170,736,9288,0,0,0,0,17708,0,0,0,6475,1089,0,15610,0,0,0,0,0,0,0
30,GARD,1,81169,60620,59388,1232,19740,1376,401,0,0,12683,0,0,0,6052,0,19136,0,0,0,0,0,0,0,0
30,GARD,2,100799,82876,81269,1607,21090,0,0,0,0,21408,0,0,5555,0,0,0,0,32149,0,0,0,0,0,1067
30,GARD,3,68455,56962,55576,1386,26288,0,0,0,0,9800,0,0,0,6006,0,13482,0,0,0,0,0,0,0,0
30,GARD,4,49924,40422,39570,852,15073,0,612,0,0,7905,0,0,2234,0,1878,11868,0,0,0,0,0,0,0,0
31,HAUTE-GARONNE,1,58273,46927,45657,1270,8260,1735,0,859,0,12224,0,0,0,3256,1273,16356,0,0,0,0,0,0,0,1694
31,HAUTE-GARONNE,2,68231,54106,52792,1314,9186,0,0,1404,538,13260,0,0,4382,0,2142,0,21880,0,0,0,0,0,0,0
31,HAUTE-GARONNE,3,76258,60881,59381,1500,10754,2393,1043,0,0,13859,0,0,6518,0,7218,17596,0,0,0,0,0,0,0,0
31,HAUTE-GARONNE,4,87793,72182,70364,1818,14451,0,2085,0,0,27197,0,0,0,4698,1502,0,0,18551,0,0,0,0,0,1880
31,HAUTE-GARONNE,5,76070,63790,62083,1707,10461,0,1716,0,0,18453,0,0,0,2938,2642,0,0,25873,0,0,0,0,0,0
31,HAUTE-GARONNE,6,58062,45804,44927,877,5858,901,660,0,0,19113,0,0,0,3441,0,0,14954,0,0,0,0,0,0,0
32,GERS,1,61479,49375,48387,988,7851,0,0,0,0,16198,0,0,0,3312,1232,0,0,0,19794,0,0,0,0,0
32,GERS,2,56237,45306,43980,1326,7302,0,0,0,0,12066,0,0,1355,0,1834,0,0,21423,0,0,0,0,0,0
33,GIRONDE,1,75045,57859,56974,885,7634,1633,0,859,0,13697,0,0,0,9413,0,23738,0,0,0,0,0,0,0,0
33,GIRONDE,2,35428,26271,25887,384,3166,0,609,0,0,5059,0,0,0,4483,0,12570,0,0,0,0,0,0,0,0
33,GIRONDE,3,49336,37715,37105,610,5859,0,0,0,0,13420,0,0,0,4726,1407,11029,0,0,0,0,0,0,0,664
33,GIRONDE,4,66627,53886,52885,1001,10623,1269,927,0,0,23000,0,0,0,4207,2969,0,0,0,9890,0,0,0,0,0
33,GIRONDE,5,64010,51685,50475,1210,8496,0,0,0,0,0,12027,0,0,5475,0,0,0,17562,0,0,6915,0,0,0
33,GIRONDE,6,86170,68376,67107,1269,13748,1879,1133,0,0,20146,0,0,0,6266,0,22498,0,0,0,0,0,0,0,1437
33,GIRONDE,7,71702,57861,56605,1256,8418,0,1614,0,0,12434,0,0,0,4921,2247,12292,14679,0,0,0,0,0,0,0
33,GIRONDE,8,59972,49326,48338,988,9873,0,0,0,0,17255,0,0,4161,0,3235,0,0,0,13814,0,0,0,0,0
33,GIRONDE,9,57804,46442,45297,1145,7281,0,1059,0,0,0,11405,0,0,2880,1765,20144,0,0,0,0,0,0,0,763
33,GIRONDE,10,48142,38677,37838,839,3815,0,0,0,0,11180,0,0,3206,0,5175,14462,0,0,0,0,0,0,0,0
34,HERAULT,1,88072,68661,67409,1252,13548,0,0,1794,0,15537,0,0,9171,0,0,24217,0,0,0,0,0,0,0,3142
34,HERAULT,2,83498,66410,65199,1211,11670,0,0,1435,519,21958,0,0,0,9835,0,16042,0,0,0,0,0,3740,0,0
34,HERAULT,3,67620,54368,53383,985,18134,0,0,988,0,13333,0,0,4897,0,1195,14836,0,0,0,0,0,0,0,0
34,HERAULT,4,69902,55332,54298,1034,18103,0,1032,0,0,11380,0,0,0,7263,0,16520,0,0,0,0,0,0,0,0
34,HERAULT,5,51723,40092,38725,1367,9539,0,0,941,0,18123,0,0,0,0,0,10122,0,0,0,0,0,0,0,0
35,ILLE-ET-VILAINE,1,84134,65840,64500,1340,7983,3179,1615,0,0,11715,0,0,0,12410,1517,26081,0,0,0,0,0,0,0,0
35,ILLE-ET-VILAINE,2,99711,80683,79215,1468,9128,2857,0,691,0,17683,0,845,0,10122,1020,36869,0,0,0,0,0,0,0,0
35,ILLE-ET-VILAINE,3,46489,40577,39523,1054,1239,0,0,0,0,6236,0,0,0,0,468,10751,0,20829,0,0,0,0,0,0
35,ILLE-ET-VILAINE,4,49878,40518,39797,721,3819,0,1033,0,0,3890,0,0,0,2456,10180,0,18419,0,0,0,0,0,0,0
35,ILLE-ET-VILAINE,5,50024,43202,42132,1070,4586,1178,824,0,0,2582,0,0,0,10302,1782,20182,0,0,0,0,0,0,0,696
35,ILLE-ET-VILAINE,6,80837,66178,64851,1327,8841,0,0,0,0,12378,0,0,0,8842,1674,33116,0,0,0,0,0,0,0,0
36,INDRE,1,56998,46909,45857,1052,15051,0,1179,0,0,6958,0,0,0,9797,0,12872,0,0,0,0,0,0,0,0
36,INDRE,2,54270,43300,42134,1166,11478,0,1760,0,0,8055,0,0,0,4626,0,0,16215,0,0,0,0,0,0,0
36,INDRE,3,52771,43392,42299,1093,11613,0,0,0,0,0,6572,0,0,7228,0,16886,0,0,0,0,0,0,0,0
37,INDRE-ET-LOIRE,1,70810,54896,54005,891,10347,0,1377,0,0,9661,0,0,4965,0,0,0,0,0,27655,0,0,0,0,0
37,INDRE-ET-LOIRE,2,64210,52250,49696,2554,5480,0,0,1634,0,14096,0,0,7682,0,3724,17080,0,0,0,0,0,0,0,0
37,INDRE-ET-LOIRE,3,60611,50005,48359,1646,7518,0,0,0,0,0,16602,0,0,4340,4668,15231,0,0,0,0,0,0,0,0
37,INDRE-ET-LOIRE,4,70901,57909,56263,1646,6989,0,0,1471,0,13170,0,0,7499,0,0,27134,0,0,0,0,0,0,0,0
38,ISERE,1,65163,51747,50898,849,10619,3330,886,0,0,9379,0,0,0,3743,0,0,22597,0,0,0,0,0,0,344
38,ISERE,2,92217,70503,69143,1360,16546,0,0,975,753,20904,0,0,6854,0,0,17516,0,0,0,0,0,5138,457,0
38,ISERE,3,67206,52008,51039,969,18913,2531,908,0,0,6451,0,0,7205,0,0,12054,0,0,0,0,0,0,2977,0
38,ISERE,4,59399,46767,45886,881,8912,1998,0,0,0,10884,0,0,6683,0,2082,15327,0,0,0,0,0,0,0,0
38,ISERE,5,52438,42506,41716,790,6191,0,1223,0,0,16373,0,0,5506,0,0,0,12423,0,0,0,0,0,0,0
38,ISERE,6,50426,41368,40594,774,10458,0,849,0,0,9294,0,0,0,5694,0,0,14299,0,0,0,0,0,0,0
38,ISERE,7,58254,44807,43537,1270,8741,0,0,0,0,9011,0,0,8118,0,1366,0,16301,0,0,0,0,0,0,0
39,JURA,1,73380,57328,56108,1220,8684,2119,0,0,0,9933,0,0,0,12499,5400,0,17473,0,0,0,0,0,0,0
39,JURA,2,74214,61100,60045,1055,9579,0,1533,0,0,11191,0,0,3808,0,4337,0,0,29597,0,0,0,0,0,0
40,LANDES,1,61590,51446,50174,1272,7832,0,0,0,0,8974,0,10027,3932,0,693,18716,0,0,0,0,0,0,0,0
40,LANDES,2,71638,60853,59531,1322,9996,0,1314,0,0,25066,0,0,0,6455,0,0,0,0,16700,0,0,0,0,0
40,LANDES,3,54862,46818,45732,1086,7724,0,0,0,0,6150,0,9240,0,0,0,0,0,22618,0,0,0,0,0,0
41,LOIR-ET-CHER,1,65675,53865,52392,1473,10600,2012,0,989,0,8038,0,0,0,27754,2999,0,0,0,0,0,0,0,0,0
41,LOIR-ET-CHER,2,56840,46982,45914,1068,8250,0,1633,0,0,10634,0,0,5780,0,1100,18517,0,0,0,0,0,0,0,0
41,LOIR-ET-CHER,3,50646,41854,40684,1170,6790,0,0,0,0,11707,0,0,0,9037,0,0,0,13150,0,0,0,0,0,0
42,LOIRE,1,52904,38907,38361,546,8695,1724,673,0,0,4628,0,0,16715,0,0,4923,0,0,0,0,0,0,0,1003
42,LOIRE,2,73254,53262,52457,805,10800,2537,0,563,345,9231,0,0,0,7347,1254,19228,0,0,0,0,0,0,0,1152
42,LOIRE,3,66641,52429,51002,1427,8746,2633,1326,0,0,9441,0,0,0,0,12599,9028,6048,0,0,0,0,0,0,1181
42,LOIRE,4,53557,42019,40809,1210,15290,1688,783,0,0,5324,0,0,0,3188,1811,0,0,11713,0,0,0,0,0,1012
42,LOIRE,5,62708,48247,47314,933,9719,0,1119,0,0,8751,0,0,0,8470,0,18480,0,0,0,0,0,0,0,775
42,LOIRE,6,47842,38041,36860,1181,4942,0,0,0,0,8473,0,0,0,5934,4290,12963,0,0,0,0,0,0,0,258
42,LOIRE,7,65193,51141,49684,1457,6626,3115,0,0,0,0,8237,0,0,4577,11256,0,14771,0,0,0,0,0,0,1102
43,HAUTE-LOIRE,1,70882,55780,54450,1330,4893,0,0,0,0,10427,0,0,0,0,0,0,0,36431,0,0,0,0,0,2699
43,HAUTE-LOIRE,2,67219,52297,51504,793,4188,0,0,0,0,20860,0,0,2143,0,0,8523,15790,0,0,0,0,0,0,0
44,LOIRE-ATLANTIQUE,1,86088,66688,65642,1046,8599,2933,0,1001,0,15210,0,0,10091,0,3818,14578,9412,0,0,0,0,0,0,0
44,LOIRE-ATLANTIQUE,2,68425,53005,52318,687,7206,2177,0,694,626,13934,0,427,0,7131,2831,0,0,16317,0,0,0,0,0,975
44,LOIRE-ATLANTIQUE,3,65634,53685,52839,846,6334,4457,915,0,0,12571,0,0,5073,0,589,22900,0,0,0,0,0,0,0,0
44,LOIRE-ATLANTIQUE,4,75083,63511,61733,1778,3760,0,0,0,0,10856,0,0,12282,0,5248,0,29587,0,0,0,0,0,0,0
44,LOIRE-ATLANTIQUE,5,49337,41396,39847,1549,3290,0,0,0,0,7657,0,0,0,0,2549,0,0,0,26351,0,0,0,0,0
44,LOIRE-ATLANTIQUE,6,73751,59272,58415,857,10242,2394,1104,0,0,18448,0,0,0,5404,1118,19705,0,0,0,0,0,0,0,0
44,LOIRE-ATLANTIQUE,7,52918,44689,44048,641,4152,0,0,0,0,7662,0,0,0,4850,1156,26228,0,0,0,0,0,0,0,0
44,LOIRE-ATLANTIQUE,8,60799,52093,51093,1000,3144,0,0,0,0,7806,0,0,0,8543,761,29644,0,0,0,0,0,0,0,1195
45,LOIRET,1,71845,58887,57335,1552,8619,4548,1616,0,0,0,11271,0,0,7762,0,22026,0,0,0,0,0,0,0,1493
45,LOIRET,2,71093,59403,57808,1595,15145,2771,0,676,0,9530,0,0,0,8290,0,21396,0,0,0,0,0,0,0,0
45,LOIRET,3,61564,51680,50186,1494,8033,2705,0,0,0,0,6744,0,0,11151,0,21553,0,0,0,0,0,0,0,0
45,LOIRET,4,65421,54432,53057,1375,14583,0,0,853,0,0,8010,0,0,0,0,27928,0,0,0,0,0,0,0,1683
46,LOT,1,52610,44035,43020,1015,6619,1477,879,0,0,0,17012,0,0,3144,0,13889,0,0,0,0,0,0,0,0
46,LOT,2,50571,43035,42281,754,7714,944,0,0,0,12897,0,0,0,1627,0,19099,0,0,0,0,0,0,0,0
47,LOT-ET-GARONNE,1,69509,56898,55384,1514,12755,0,0,0,0,14004,0,0,0,6330,2326,0,19969,0,0,0,0,0,0,0
47,LOT-ET-GARONNE,2,56210,47172,46106,1066,16610,0,0,0,0,6397,0,0,6852,0,1678,14569,0,0,0,0,0,0,0,0
47,LOT-ET-GARONNE,3,59338,48701,47420,1281,7336,1251,912,0,0,11544,0,0,11725,0,1155,10658,0,0,0,0,1946,0,0,893
48,LOZERE,1,28988,21921,21526,395,2501,0,0,0,0,3962,0,0,0,0,3466,0,7434,0,0,0,0,4163,0,0
48,LOZERE,2,23909,19190,18793,397,1275,0,0,0,0,1623,0,0,0,0,2426,0,9973,0,0,3496,0,0,0,0
49,MAINE-ET-LOIRE,1,53102,41822,40896,926,5593,0,0,0,0,9969,0,0,0,0,8521,16813,0,0,0,0,0,0,0,0
49,MAINE-ET-LOIRE,2,61649,51208,49918,1290,6230,0,1410,0,0,8571,0,0,0,9622,0,24085,0,0,0,0,0,0,0,0
49,MAINE-ET-LOIRE,3,48159,37683,36275,1408,4454,0,0,0,0,6122,0,0,3677,0,3027,0,0,6026,0,0,3105,0,9319,545
49,MAINE-ET-LOIRE,4,52697,42982,41995,987,3014,0,0,0,0,5144,0,0,15120,0,0,18717,0,0,0,0,0,0,0,0
49,MAINE-ET-LOIRE,5,73719,64308,63122,1186,3754,0,1173,0,0,7437,0,0,0,0,26425,24333,0,0,0,0,0,0,0,0
49,MAINE-ET-LOIRE,6,63066,52201,50897,1304,5063,0,1389,0,0,10532,0,0,0,7116,0,22354,0,0,0,0,4443,0,0,0
50,MANCHE,1,54601,45215,44122,1093,2392,5236,0,0,0,4359,0,0,0,10661,0,10513,0,0,0,0,10961,0,0,0
50,MANCHE,2,65682,54892,53284,1608,3438,0,0,0,0,5800,0,0,0,0,0,25744,0,0,0,0,18302,0,0,0
50,MANCHE,3,55718,44983,43781,1202,3905,0,0,0,0,6662,0,0,0,12626,711,0,19877,0,0,0,0,0,0,0
50,MANCHE,4,45769,36496,35576,920,2954,0,0,0,0,6873,0,0,0,0,7980,17769,0,0,0,0,0,0,0,0
50,MANCHE,5,54815,43948,43124,824,5485,0,0,790,0,15048,0,0,0,6349,0,0,0,15452,0,0,0,0,0,0
51,MARNE,1,72830,59258,58100,1158,13101,0,0,1338,0,10949,0,0,0,5904,1026,25782,0,0,0,0,0,0,0,0
51,MARNE,2,70863,57229,56113,1116,12675,0,1869,0,0,10355,0,0,5560,0,2278,23376,0,0,0,0,0,0,0,0
51,MARNE,3,72517,57517,56053,1464,14854,0,1309,0,0,10132,0,0,7438,0,3174,19146,0,0,0,0,0,0,0,0
51,MARNE,4,65912,53493,51762,1731,14392,0,0,0,0,9340,0,0,0,0,1916,0,0,26114,0,0,0,0,0,0
52,HAUTE-MARNE,1,67944,54789,53247,1542,7174,2992,0,0,0,0,8531,0,0,14926,0,19624,0,0,0,0,0,0,0,0
52,HAUTE-MARNE,2,57040,46274,45075,1199,12616,1605,1076,0,0,6231,0,0,0,4608,0,18939,0,0,0,0,0,0,0,0
53,MAYENNE,1,62933,53598,51922,1676,3592,0,0,0,0,19640,0,0,0,7687,0,21003,0,0,0,0,0,0,0,0
53,MAYENNE,2,49065,42510,41380,1130,2124,0,0,0,0,4613,0,0,0,10912,1680,22051,0,0,0,0,0,0,0,0
53,MAYENNE,3,47665,40930,39580,1350,2810,0,0,0,0,6003,0,0,0,4838,0,0,25929,0,0,0,0,0,0,0
54,MEURTHE-ET-MOSELLE,1,70094,55078,53698,1380,10521,3034,1054,0,0,0,5056,558,16188,0,644,0,0,6505,0,0,0,0,10138,0
54,MEURTHE-ET-MOSELLE,2,74418,57370,55950,1420,8918,1780,0,593,0,12545,0,0,8465,0,0,0,13350,0,0,9572,0,0,0,727
54,MEURTHE-ET-MOSELLE,3,61243,46285,44756,1529,7178,2092,0,0,0,6338,0,0,7383,0,7664,6780,0,0,0,0,7321,0,0,0
54,MEURTHE-ET-MOSELLE,4,48947,40180,38946,1234,7941,0,1067,0,0,5212,0,0,6191,0,4576,0,13959,0,0,0,0,0,0,0
54,MEURTHE-ET-MOSELLE,5,41339,33875,32771,1104,4488,1374,0,0,0,5699,0,0,3664,0,0,0,0,0,11489,0,0,0,6057,0
54,MEURTHE-ET-MOSELLE,6,47729,41272,40621,651,17668,1447,0,0,0,4850,0,0,0,0,0,0,16656,0,0,0,0,0,0,0
54,MEURTHE-ET-MOSELLE,7,49660,41325,40693,632,14957,0,720,0,0,6266,0,0,7516,0,0,7504,0,0,0,0,0,3730,0,0
55,MEUSE,1,69099,56637,54886,1751,6405,1587,0,0,0,15109,0,0,8655,0,3526,19604,0,0,0,0,0,0,0,0
55,MEUSE,2,54432,44812,43910,902,6717,0,0,0,0,11239,0,0,0,4458,0,0,21496,0,0,0,0,0,0,0
56,MORBIHAN,1,70709,58746,57887,859,3642,2260,0,0,0,7458,0,0,5183,0,1452,0,37892,0,0,0,0,0,0,0
56,MORBIHAN,2,55404,44878,43983,895,5796,0,0,0,0,6480,0,0,0,0,1649,0,30058,0,0,0,0,0,0,0
56,MORBIHAN,3,54831,47594,46973,621,4144,0,0,0,0,10057,0,0,0,10088,0,22684,0,0,0,0,0,0,0,0
56,MORBIHAN,4,44083,36944,36560,384,2130,0,0,0,0,2721,0,0,0,9351,12974,0,9384,0,0,0,0,0,0,0
56,MORBIHAN,5,71107,56985,56275,710,11121,582,724,0,0,19595,0,0,3489,0,1189,0,19575,0,0,0,0,0,0,0
56,MORBIHAN,6,53276,44379,43873,506,12058,0,0,0,0,5258,0,1400,0,18326,766,6065,0,0,0,0,0,0,0,0
57,MOSELLE,1,91421,73847,71947,1900,10397,2218,0,957,0,11827,0,0,18142,0,0,0,11395,16207,0,0,0,0,0,804
57,MOSELLE,2,59251,47390,45992,1398,3433,1460,990,0,0,7350,0,0,0,6774,1514,12409,0,0,0,0,0,12062,0,0
57,MOSELLE,3,70382,58285,56995,1290,17839,0,0,736,0,15257,0,0,3831,0,0,0,19332,0,0,0,0,0,0,0
57,MOSELLE,4,63940,52677,51262,1415,11260,0,1504,0,0,8654,0,0,0,12710,0,0,17134,0,0,0,0,0,0,0
57,MOSELLE,5,73841,56690,54921,1769,7410,0,0,0,0,10797,0,0,15605,0,0,21109,0,0,0,0,0,0,0,0
57,MOSELLE,6,58666,45554,43956,1598,4906,1768,888,0,0,5129,0,0,12565,0,5751,12949,0,0,0,0,0,0,0,0
57,MOSELLE,7,48222,40588,39586,1002,2571,0,0,0,0,3250,0,0,9257,0,1326,12170,0,0,0,0,0,11012,0,0
57,MOSELLE,8,55802,47247,46215,1032,2286,0,0,0,0,3633,0,0,0,6966,0,33330,0,0,0,0,0,0,0,0
58,NIEVRE,1,58596,46310,45212,1098,8962,0,1415,0,0,18464,0,0,0,4652,0,0,11719,0,0,0,0,0,0,0
58,NIEVRE,2,54931,43929,43061,868,10808,2548,0,0,0,11144,0,0,5047,0,0,13514,0,0,0,0,0,0,0,0
58,NIEVRE,3,45693,36760,35894,866,4751,0,0,0,0,17058,0,0,5025,0,0,9060,0,0,0,0,0,0,0,0
59,NORD,1,47187,39030,38025,1005,5711,808,1027,0,0,6995,0,0,0,5279,3744,14461,0,0,0,0,0,0,0,0
59,NORD,2,49016,37912,37000,912,6163,631,0,483,0,12610,0,0,5023,0,3594,8161,0,0,0,0,0,0,0,335
59,NORD,3,46077,37083,36210,873,6383,795,799,0,541,6851,0,0,0,5367,3455,12019,0,0,0,0,0,0,0,0
59,NORD,4,43344,35786,35004,782,7925,764,759,0,0,9515,0,0,2579,0,2188,10686,0,0,0,0,0,0,0,588
59,NORD,5,61540,53224,52057,1167,9418,0,1405,0,0,21061,0,0,0,5444,0,0,0,0,14729,0,0,0,0,0
59,NORD,6,60515,53733,52525,1208,11780,0,0,0,0,15555,0,0,4480,0,3150,17560,0,0,0,0,0,0,0,0
59,NORD,7,85015,73029,71047,1982,12519,1641,1498,0,0,20198,0,0,0,6054,7899,15382,0,5856,0,0,0,0,0,0
59,NORD,8,57968,49041,47815,1226,8920,776,893,0,0,13567,0,0,0,5851,2412,15396,0,0,0,0,0,0,0,0
59,NORD,9,78809,68256,66618,1638,10404,1467,0,0,0,12968,0,0,0,9467,4775,27537,0,0,0,0,0,0,0,0
59,NORD,10,73902,66170,64718,1452,12486,0,0,0,0,17549,0,0,0,3987,4856,24690,0,0,0,0,0,0,0,1150
59,NORD,11,97790,80524,79025,1499,12917,1510,2011,0,0,29143,0,0,0,4160,3349,0,0,0,25935,0,0,0,0,0
59,NORD,12,42202,38239,37209,1030,2863,0,0,0,0,11269,0,0,0,3577,3458,16042,0,0,0,0,0,0,0,0
59,NORD,13,48815,43696,42589,1107,5666,0,0,0,0,10822,0,0,0,7341,6354,12406,0,0,0,0,0,0,0,0
59,NORD,14,71872,62230,61291,939,23965,0,997,0,0,9509,0,0,0,2172,17701,6947,0,0,0,0,0,0,0,0
59,NORD,15,61492,53560,52406,1154,23224,0,1593,0,0,8010,0,0,2679,0,3850,12376,0,0,0,0,0,0,0,674
59,NORD,16,62334,53497,52308,1189,15610,0,1548,0,0,15130,0,0,5265,0,1496,13259,0,0,0,0,0,0,0,0
59,NORD,17,45031,40095,39369,726,11630,0,0,0,0,9784,0,0,0,2371,277,0,15307,0,0,0,0,0,0,0
59,NORD,18,56594,47988,47020,968,20639,0,884,0,0,5639,0,0,0,3114,2206,0,14538,0,0,0,0,0,0,0
59,NORD,19,74424,62879,61811,1068,22412,0,1287,0,0,7115,0,0,0,18023,1670,11304,0,0,0,0,0,0,0,0
59,NORD,20,72701,63624,62404,1220,28605,0,2008,0,0,13295,0,0,3727,0,0,14769,0,0,0,0,0,0,0,0
59,NORD,21,39478,34311,33646,665,8910,0,0,0,0,8932,0,0,2336,0,350,13118,0,0,0,0,0,0,0,0
59,NORD,22,55285,47263,46531,732,13996,965,640,0,0,11008,0,0,0,2700,732,16490,0,0,0,0,0,0,0,0
59,NORD,23,46073,40604,39924,680,13980,0,0,0,0,8563,0,0,0,3542,1909,11930,0,0,0,0,0,0,0,0
60,OISE,1,58510,50947,49835,1112,8736,0,0,0,0,11142,0,0,0,5033,853,24071,0,0,0,0,0,0,0,0
60,OISE,2,62573,52054,50697,1357,10564,0,0,0,0,10030,0,0,4975,0,11941,13187,0,0,0,0,0,0,0,0
60,OISE,3,59528,51234,49817,1417,12911,0,0,0,0,11340,0,0,0,0,0,0,0,23907,0,0,0,0,0,1659
60,OISE,4,81708,68159,66748,1411,17608,0,1838,0,0,15462,0,0,6945,0,4324,19515,0,0,0,0,0,0,0,1056
60,OISE,5,53681,45997,44973,1024,10641,0,0,0,0,0,8670,0,0,7665,0,17997,0,0,0,0,0,0,0,0
61,ORNE,1,58656,47815,46421,1394,3905,2228,0,0,0,6192,0,0,0,11380,0,12573,0,0,0,0,0,10143,0,0
61,ORNE,2,51468,42895,41991,904,4458,0,0,0,0,5712,0,0,0,18830,0,0,0,0,12991,0,0,0,0,0
61,ORNE,3,64381,53049,51478,1571,5666,0,0,0,0,11163,0,0,0,10956,0,12743,10950,0,0,0,0,0,0,0
62,PAS-DE-CALAIS,1,68956,60355,58935,1420,15526,1244,1598,0,0,17819,0,0,0,6396,0,16352,0,0,0,0,0,0,0,0
62,PAS-DE-CALAIS,2,55609,49234,48129,1105,11264,0,0,0,0,9839,0,0,0,5801,6343,12433,0,0,0,0,0,0,0,2449
62,PAS-DE-CALAIS,3,53109,47552,46704,848,12143,0,0,0,0,13822,0,0,0,2894,0,0,17845,0,0,0,0,0,0,0
62,PAS-DE-CALAIS,4,55232,48107,46922,1185,7365,0,0,0,0,0,11262,0,0,4685,11677,11933,0,0,0,0,0,0,0,0
62,PAS-DE-CALAIS,5,54274,46304,45456,848,14392,0,805,0,0,12907,0,0,0,2440,0,8982,5003,0,0,0,0,0,0,927
62,PAS-DE-CALAIS,6,60191,52293,51292,1001,7977,0,1219,0,0,17083,0,0,3240,0,0,21336,0,0,0,0,0,0,0,437
62,PAS-DE-CALAIS,7,64561,54063,52864,1199,19541,896,0,0,0,7605,0,0,0,7585,1901,14925,0,0,0,0,0,0,0,411
62,PAS-DE-CALAIS,8,63268,56401,55291,1110,10274,1009,0,0,0,17883,0,0,0,4795,1174,20156,0,0,0,0,0,0,0,0
62,PAS-DE-CALAIS,9,57404,49346,48339,1007,17050,0,0,0,0,10544,0,0,0,5701,1449,10089,0,3506,0,0,0,0,0,0
62,PAS-DE-CALAIS,10,51244,43823,43079,744,17220,0,0,0,0,16387,0,0,1633,0,2535,5304,0,0,0,0,0,0,0,0
62,PAS-DE-CALAIS,11,54539,48016,46933,1083,19677,0,0,0,0,11349,0,0,4272,0,5303,6332,0,0,0,0,0,0,0,0
62,PAS-DE-CALAIS,12,56279,48284,47467,817,17800,0,0,0,0,20769,0,0,2794,0,0,6104,0,0,0,0,0,0,0,0
62,PAS-DE-CALAIS,13,47409,40599,39954,645,11159,0,762,0,0,20378,0,0,0,1947,0,5708,0,0,0,0,0,0,0,0
62,PAS-DE-CALAIS,14,56757,48986,47945,1041,17310,0,1485,0,0,15328,0,0,3008,0,0,10814,0,0,0,0,0,0,0,0
63,PUY-DE-DOME,1,84215,67428,66020,1408,13956,2821,0,798,619,22318,0,0,0,7281,0,18227,0,0,0,0,0,0,0,0
63,PUY-DE-DOME,2,69161,56217,55235,982,8213,2372,1436,0,0,10212,0,0,5176,0,0,0,27826,0,0,0,0,0,0,0
63,PUY-DE-DOME,3,52128,40713,40069,644,6225,0,1336,0,0,15821,0,0,4183,0,0,0,12504,0,0,0,0,0,0,0
63,PUY-DE-DOME,4,61988,47385,46111,1274,8517,0,1858,0,0,16054,0,0,5598,0,0,0,0,0,14084,0,0,0,0,0
63,PUY-DE-DOME,5,65684,53030,52233,797,9909,0,1125,0,0,15983,0,0,0,3414,0,0,21802,0,0,0,0,0,0,0
64,PYRENEES-ATLANTIQUES,1,107123,86554,85342,1212,5804,1093,0,896,0,34811,0,0,6992,0,0,0,0,34595,0,0,0,0,0,1151
64,PYRENEES-ATLANTIQUES,2,77773,64293,62958,1335,8399,1255,0,718,0,10584,0,0,18540,0,0,23462,0,0,0,0,0,0,0,0
64,PYRENEES-ATLANTIQUES,3,48793,40475,39882,593,1893,0,0,0,0,5990,0,0,0,12399,0,19600,0,0,0,0,0,0,0,0
64,PYRENEES-ATLANTIQUES,4,95250,77237,75797,1440,11575,0,0,0,0,14706,0,0,0,15472,970,25056,7122,0,0,0,0,0,0,896
65,HAUTES-PYRENEES,1,69805,54581,53513,1068,10387,1381,0,856,0,14485,0,0,0,3067,1895,0,0,21442,0,0,0,0,0,0
65,HAUTES-PYRENEES,2,75619,61367,60222,1145,12749,0,0,814,0,0,20382,0,7684,0,0,18593,0,0,0,0,0,0,0,0
66,PYRENEES-ORIENTALES,1,102284,78172,75872,2300,20126,0,0,1824,0,26825,0,0,0,8329,1583,14624,0,0,0,0,0,0,0,2561
66,PYRENEES-ORIENTALES,2,79977,61190,59601,1589,23312,913,513,0,0,8710,0,731,9132,0,0,0,0,0,14853,0,0,0,1437,0
67,BAS-RHIN,1,48169,34053,33288,765,2356,0,1064,0,0,5534,0,0,0,9278,0,15056,0,0,0,0,0,0,0,0
67,BAS-RHIN,2,69860,50917,49703,1214,4373,2083,0,1759,0,8096,0,0,0,10310,0,23082,0,0,0,0,0,0,0,0
67,BAS-RHIN,3,94269,71420,69043,2377,7831,0,0,0,0,11277,0,1124,0,0,4036,27878,0,16897,0,0,0,0,0,0
67,BAS-RHIN,4,62166,51857,49382,2475,3370,0,0,0,0,5465,0,0,0,16503,0,24044,0,0,0,0,0,0,0,0
67,BAS-RHIN,5,48052,40013,38751,1262,2947,1417,0,0,0,2296,0,0,0,15170,0,16921,0,0,0,0,0,0,0,0
67,BAS-RHIN,6,52121,41556,40325,1231,2334,0,0,0,0,3753,0,0,0,16083,0,18155,0,0,0,0,0,0,0,0
67,BAS-RHIN,7,49720,41173,40002,1171,1761,0,0,0,0,3304,0,0,0,10310,0,24627,0,0,0,0,0,0,0,0
67,BAS-RHIN,8,63490,51421,49770,1651,3311,0,0,0,0,5555,0,0,0,10144,0,30760,0,0,0,0,0,0,0,0
68,HAUT-RHIN,1,70061,56390,53893,2497,3488,0,0,0,0,6496,0,0,0,14097,8083,21016,0,0,0,0,0,0,0,713
68,HAUT-RHIN,2,60825,49693,47973,1720,3742,0,0,0,0,8634,0,0,6358,7104,0,22135,0,0,0,0,0,0,0,0
68,HAUT-RHIN,3,71560,60272,58010,2262,4961,0,0,0,0,6036,0,0,0,20103,2684,24226,0,0,0,0,0,0,0,0
68,HAUT-RHIN,4,76778,57041,55098,1943,4354,1486,0,811,0,5374,0,0,0,18943,3808,20322,0,0,0,0,0,0,0,0
68,HAUT-RHIN,5,76351,60059,57651,2408,5924,2733,0,0,0,7754,0,0,0,10180,2673,28387,0,0,0,0,0,0,0,0
69,RHONE,1,61359,46910,46033,877,10924,2033,839,0,312,7393,0,0,7456,0,3098,13978,0,0,0,0,0,0,0,0
69,RHONE,2,53988,41306,40586,720,6039,1589,1135,0,0,8348,0,0,0,8887,2881,11707,0,0,0,0,0,0,0,0
69,RHONE,3,42823,31121,30441,680,4561,1469,0,584,0,4851,0,0,0,0,7032,0,0,4829,0,0,0,0,4846,2269
69,RHONE,4,58771,44693,44008,685,4851,1593,0,1045,0,7149,0,0,0,9864,5014,14492,0,0,0,0,0,0,0,0
69,RHONE,5,44333,32272,31662,610,4564,1311,614,0,0,0,5921,0,0,6897,0,12355,0,0,0,0,0,0,0,0
69,RHONE,6,57720,43307,42537,770,10927,1710,917,0,0,7950,0,0,0,11375,0,9658,0,0,0,0,0,0,0,0
69,RHONE,7,70535,56444,55413,1031,7658,2131,1024,0,0,9924,0,0,0,12948,3378,8980,0,9370,0,0,0,0,0,0
69,RHONE,8,61415,50863,49988,875,11586,1674,0,0,0,5188,0,0,7312,0,7371,0,12373,4484,0,0,0,0,0,0
69,RHONE,9,42607,34790,34019,771,3269,0,0,0,0,12347,0,0,0,5404,0,0,12999,0,0,0,0,0,0,0
69,RHONE,10,50510,39389,38539,850,5025,987,867,0,0,7758,0,0,7036,0,0,0,16866,0,0,0,0,0,0,0
69,RHONE,11,61279,50272,49341,931,18118,1467,978,0,0,13917,0,0,5312,0,0,9549,0,0,0,0,0,0,0,0
69,RHONE,12,60991,49473,48689,784,8911,2157,996,0,0,9981,0,0,0,10004,0,16640,0,0,0,0,0,0,0,0
69,RHONE,13,52305,41567,40697,870,10357,1523,1013,0,0,10717,0,0,4408,0,2419,10260,0,0,0,0,0,0,0,0
70,HAUTE-SAONE,1,67359,54661,53288,1373,7398,0,0,0,0,12664,0,0,0,13250,0,0,19976,0,0,0,0,0,0,0
70,HAUTE-SAONE,2,69327,59247,57618,1629,6944,1510,1515,0,0,0,19402,0,0,0,0,0,0,28247,0,0,0,0,0,0
71,SAONE-ET-LOIRE,1,71410,53591,52180,1411,9733,1687,0,1076,0,12294,0,0,0,0,0,0,27390,0,0,0,0,0,0,0
71,SAONE-ET-LOIRE,2,71978,56773,55309,1464,9283,0,0,0,0,0,26725,0,0,0,0,19301,0,0,0,0,0,0,0,0
71,SAONE-ET-LOIRE,3,62106,50011,48973,1038,10792,0,933,0,0,6990,0,0,7323,0,0,15810,0,0,0,0,7125,0,0,0
71,SAONE-ET-LOIRE,4,64939,50993,49681,1312,11170,0,1506,0,0,11646,0,0,0,0,0,25359,0,0,0,0,0,0,0,0
71,SAONE-ET-LOIRE,5,71079,53099,51956,1143,8740,0,1155,0,0,13820,0,0,3224,2618,1839,12175,0,8385,0,0,0,0,0,0
72,SARTHE,1,55721,45583,44267,1316,5393,1444,884,0,0,9583,0,0,8832,0,1208,15922,0,0,0,0,0,0,0,1001
72,SARTHE,2,67861,56290,55169,1121,19903,0,0,652,0,8917,0,0,3232,0,0,22465,0,0,0,0,0,0,0,0
72,SARTHE,3,54510,44454,43200,1254,7604,0,0,0,0,12990,0,0,0,0,0,0,0,13740,0,8866,0,0,0,0
72,SARTHE,4,61129,51069,49981,1088,10376,1695,0,0,0,7303,0,0,0,4923,0,25684,0,0,0,0,0,0,0,0
72,SARTHE,5,46099,38492,37399,1093,6963,0,0,0,0,5632,0,0,0,3174,1457,0,20173,0,0,0,0,0,0,0
73,SAVOIE,1,64615,50427,49558,869,7231,0,0,0,0,8415,0,9325,0,6059,0,0,18528,0,0,0,0,0,0,0
73,SAVOIE,2,48907,36986,36433,553,9144,0,0,0,0,7261,0,0,0,2910,2193,0,0,14925,0,0,0,0,0,0
73,SAVOIE,3,61127,48508,47888,620,6539,1640,0,0,0,15486,0,0,0,4172,0,20051,0,0,0,0,0,0,0,0
74,HAUTE-SAVOIE,1,96833,75065,73537,1528,9461,3386,0,0,0,12379,0,0,0,21123,0,0,27188,0,0,0,0,0,0,0
74,HAUTE-SAVOIE,2,53845,41766,39589,2177,7163,3393,0,0,0,5171,0,0,0,0,0,0,23862,0,0,0,0,0,0,0
74,HAUTE-SAVOIE,3,79143,60019,58748,1271,10835,2086,0,0,0,10714,0,431,0,11534,1722,21426,0,0,0,0,0,0,0,0
75,PARIS,1,41851,31443,30981,462,5219,1854,0,0,0,5119,0,0,0,6112,1823,9913,0,0,0,0,0,0,0,941
75,PARIS,2,41948,31450,30960,490,5989,1308,685,0,0,5287,0,0,0,4194,886,0,11758,0,0,0,0,0,142,711
75,PARIS,3,44469,34742,34317,425,5048,2240,0,670,0,5269,0,0,0,3957,2643,13689,0,0,0,0,0,0,0,801
75,PARIS,4,39065,28654,28323,331,2832,1458,507,0,0,3948,0,0,0,5349,2682,10845,0,0,0,0,0,0,0,702
75,PARIS,5,44393,35675,35372,303,2464,1280,447,0,0,3647,0,0,5542,0,916,8245,11401,0,0,0,0,0,0,1430
75,PARIS,6,31744,24515,24282,233,1547,0,469,0,0,2822,0,0,0,5341,5509,8056,0,0,0,0,0,0,0,538
75,PARIS,7,41143,32532,32128,404,3652,1206,579,0,206,4720,0,0,0,7294,708,12834,0,0,0,0,0,0,0,929
75,PARIS,8,55246,42914,42274,640,8389,1421,897,0,0,7727,0,0,0,6209,1263,15095,0,0,0,0,0,0,0,1273
75,PARIS,9,35829,28800,28377,423,6493,829,601,0,0,0,4731,0,0,4762,958,9352,0,0,0,0,0,0,0,651
75,PARIS,10,50006,40127,39293,834,10517,1624,791,0,0,6239,0,0,0,5970,0,12439,0,0,0,0,0,0,520,1193
75,PARIS,11,46406,38185,37627,558,5845,1724,0,457,0,6598,0,0,0,5250,1866,14984,0,0,0,0,0,0,0,903
75,PARIS,12,38457,30963,30472,491,6421,1115,568,0,0,5285,0,0,0,3738,282,11999,0,0,0,0,0,0,0,1064
75,PARIS,13,37986,30509,30011,498,8585,1423,648,0,0,5280,0,0,0,2857,834,5540,1793,0,0,0,0,0,2430,621
75,PARIS,14,47313,38280,37713,567,8595,2760,0,697,0,6340,0,0,0,4812,1163,12473,0,0,0,0,0,0,0,873
75,PARIS,15,49334,38308,37815,493,5497,2271,0,672,0,6329,0,0,0,4798,2636,0,0,9867,0,0,0,0,3771,1974
75,PARIS,16,38957,30260,29123,1137,6453,1200,730,0,0,5691,0,0,0,3343,0,10958,0,0,0,0,0,0,0,748
75,PARIS,17,53191,42383,41825,558,6615,2424,0,743,0,0,6465,0,0,8047,0,16239,0,0,0,0,0,0,0,1292
75,PARIS,18,35943,28648,28314,334,3375,1483,0,425,0,4360,0,0,0,5734,0,11979,0,0,0,0,0,0,0,958
75,PARIS,19,45150,35823,35371,452,6114,1767,663,0,0,5968,0,0,6623,0,0,13288,0,0,0,0,0,0,0,948
75,PARIS,20,61619,47848,47407,441,3024,1830,0,0,0,4469,0,0,0,15501,1727,19271,0,0,0,0,0,0,0,1585
75,PARIS,21,48732,38041,37609,432,2357,0,0,0,0,3866,0,0,0,14309,999,14527,0,0,0,0,0,0,0,1551
75,PARIS,22,34841,27638,27349,289,1834,0,536,0,0,3227,0,0,0,7228,379,13188,0,0,0,0,0,0,0,957
75,PARIS,23,38519,30447,29532,915,2971,976,409,0,0,3718,0,0,0,7467,2365,10919,0,0,0,0,0,0,1,706
75,PARIS,24,35885,28042,27615,427,5966,1072,0,384,0,4126,0,0,0,4200,1495,9924,0,0,0,0,0,0,0,448
75,PARIS,25,45701,36233,35603,630,7064,1369,0,561,0,7325,0,0,0,2721,6004,0,9617,0,0,0,0,0,0,942
75,PARIS,26,37463,29540,29100,440,5888,888,721,0,0,5392,0,0,0,0,4575,10894,0,0,0,0,0,0,0,742
75,PARIS,27,36220,28625,28098,527,8939,1263,0,0,0,4352,0,0,3977,0,1258,7538,0,0,0,0,0,0,0,771
75,PARIS,28,35632,27563,27052,511,7570,1297,616,0,0,0,3851,0,0,3917,641,8354,0,0,0,0,0,0,0,806
75,PARIS,29,38460,30620,30051,569,8567,1295,0,447,147,4916,0,0,0,4308,0,5122,3321,1242,0,0,0,0,0,686
75,PARIS,30,39430,31665,31153,512,7918,1446,704,0,0,5742,0,0,0,4569,1758,8331,0,0,0,0,0,0,0,685
75,PARIS,31,55359,44148,43396,752,12312,1984,0,775,0,7153,0,0,0,6349,0,13760,0,0,0,0,0,0,0,1063
76,SEINE-MARITIME,1,63741,51723,50744,979,9818,1877,0,743,0,5539,0,0,0,18431,1496,12288,0,0,0,0,0,0,0,552
76,SEINE-MARITIME,2,76377,64050,62678,1372,16966,1810,1380,0,0,22419,0,0,6334,0,0,13769,0,0,0,0,0,0,0,0
76,SEINE-MARITIME,3,67158,54340,53234,1106,19103,1937,0,687,0,7753,0,0,0,9726,0,0,14028,0,0,0,0,0,0,0
76,SEINE-MARITIME,4,73660,60992,59295,1697,18646,2062,1412,0,510,6498,0,0,13344,0,0,9553,0,0,0,0,7270,0,0,0
76,SEINE-MARITIME,5,68295,57085,55785,1300,11240,2873,0,964,0,7133,0,0,5738,0,0,0,27837,0,0,0,0,0,0,0
76,SEINE-MARITIME,6,84114,69044,67588,1456,18572,2003,0,992,0,7980,0,0,8331,0,9281,19456,0,0,0,0,0,0,0,973
76,SEINE-MARITIME,7,65748,54517,53279,1238,28528,2128,0,557,0,5424,0,0,4128,0,0,0,10992,0,0,0,0,0,862,660
76,SEINE-MARITIME,8,51898,44336,43247,1089,6612,0,0,0,0,0,9717,0,0,6429,0,20489,0,0,0,0,0,0,0,0
76,SEINE-MARITIME,9,60131,51088,50085,1003,15190,676,0,433,0,7161,0,0,11025,0,0,15600,0,0,0,0,0,0,0,0
76,SEINE-MARITIME,10,48760,40621,39456,1165,5156,0,0,0,0,10256,0,0,0,8266,0,15778,0,0,0,0,0,0,0,0
77,SEINE-ET-MARNE,1,103680,85012,83287,1725,15155,2906,0,1505,0,16718,0,0,17389,0,0,29614,0,0,0,0,0,0,0,0
77,SEINE-ET-MARNE,2,83347,68974,67666,1308,18803,1888,0,2265,0,11767,0,0,0,10015,0,22928,0,0,0,0,0,0,0,0
77,SEINE-ET-MARNE,3,71930,58690,57326,1364,11873,0,1981,0,0,11319,0,0,0,8789,1493,21871,0,0,0,0,0,0,0,0
77,SEINE-ET-MARNE,4,61342,51235,50254,981,12014,1977,1653,0,0,5630,0,0,0,4814,0,24166,0,0,0,0,0,0,0,0
77,SEINE-ET-MARNE,5,65397,53917,52882,1035,8522,1374,0,0,0,10077,0,0,6795,0,2307,17098,0,0,0,0,5115,1594,0,0
78,YVELINES,1,61214,49536,48546,990,14946,2432,0,636,0,5130,0,0,6031,0,401,8459,10177,0,0,0,0,0,0,334
78,YVELINES,2,73192,59091,58096,995,8956,3725,0,0,0,8887,0,0,11915,0,0,21689,0,0,0,0,0,0,0,2924
78,YVELINES,3,89317,73438,71410,2028,15645,2573,2165,0,580,14214,0,0,12259,0,0,23929,0,0,0,0,0,0,0,45
78,YVELINES,4,60685,50307,49613,694,8208,12056,693,0,0,0,0,0,0,11849,1159,14460,0,0,0,0,0,0,0,1188
78,YVELINES,5,55450,45418,44839,579,9967,2022,906,0,0,5090,0,0,0,5652,5877,0,13912,0,0,0,0,0,0,1413
78,YVELINES,6,49203,40640,40112,528,6123,1580,841,0,0,7136,0,0,0,8137,918,14579,0,0,0,0,0,0,0,798
78,YVELINES,7,64793,54247,52912,1335,14801,1859,1487,0,0,7291,0,0,12371,0,0,15103,0,0,0,0,0,0,0,0
78,YVELINES,8,74090,62936,61912,1024,13433,3175,0,1126,0,6005,0,17438,0,0,0,0,9457,0,0,8694,0,2584,0,0
79,DEUX-SEVRES,1,82833,64391,62993,1398,6961,1694,1694,0,0,18156,0,0,15805,0,0,0,0,18683,0,0,0,0,0,0
79,DEUX-SEVRES,2,66214,53751,51305,2446,5127,0,0,0,0,15251,0,0,0,0,0,0,0,30927,0,0,0,0,0,0
79,DEUX-SEVRES,3,58136,49172,47523,1649,3388,0,0,0,0,9120,0,0,0,16681,0,18334,0,0,0,0,0,0,0,0
80,SOMME,1,81402,69043,67585,1458,30179,1559,0,373,0,4638,0,0,0,5236,15388,10212,0,0,0,0,0,0,0,0
80,SOMME,2,57044,49860,48803,1057,13703,0,0,0,0,9463,0,0,0,6487,1237,17171,0,0,0,0,0,0,742,0
80,SOMME,3,60405,54235,53020,1215,19371,0,0,0,0,6242,0,0,5950,0,1009,20448,0,0,0,0,0,0,0,0
80,SOMME,4,56456,49855,48736,1119,11848,0,0,0,0,4290,0,0,0,21921,0,10677,0,0,0,0,0,0,0,0
80,SOMME,5,61240,53667,52293,1374,15227,0,0,0,0,8379,0,0,7809,0,6090,14788,0,0,0,0,0,0,0,0
81,TARN,1,76872,65223,63506,1717,12295,0,0,1035,0,18447,0,0,3917,0,4592,13575,0,0,0,0,0,9336,0,309
81,TARN,2,72063,62537,60489,2048,8600,2145,1461,0,0,0,13571,0,0,4123,0,30589,0,0,0,0,0,0,0,0
81,TARN,3,67587,57558,55718,1840,7372,0,0,0,0,24458,0,0,0,3377,3741,0,16770,0,0,0,0,0,0,0
82,TARN-ET-GARONNE,1,56470,47755,46510,1245,5169,1117,0,0,0,16852,0,0,3909,0,1245,18218,0,0,0,0,0,0,0,0
82,TARN-ET-GARONNE,2,60813,49685,48152,1533,8077,1072,759,0,0,0,11882,0,0,3940,9672,0,0,12750,0,0,0,0,0,0
83,VAR,1,79154,64934,63223,1711,16240,1660,0,0,0,19980,0,0,5686,0,0,9490,10167,0,0,0,0,0,0,0
83,VAR,2,92933,74286,72572,1714,14448,0,0,0,0,17458,0,0,0,10139,1856,27223,0,0,0,0,0,0,0,1448
83,VAR,3,80566,60688,59563,1125,15512,0,0,1367,0,9813,0,0,12714,0,3274,16275,0,0,0,0,0,0,0,608
83,VAR,4,107221,84158,82438,1720,25055,0,1510,0,0,14631,0,0,14426,0,4389,22427,0,0,0,0,0,0,0,0
84,VAUCLUSE,1,82342,68482,66619,1863,13468,0,1286,0,882,21059,0,0,0,7671,1453,20800,0,0,0,0,0,0,0,0
84,VAUCLUSE,2,68971,56375,54666,1709,12040,0,0,0,0,13241,0,0,5432,0,4599,17035,0,0,0,0,2319,0,0,0
84,VAUCLUSE,3,65937,55715,54208,1507,16381,0,0,0,0,12592,0,0,5035,0,0,20200,0,0,0,0,0,0,0,0
85,VENDEE,1,65207,56644,54675,1969,4350,5270,0,0,0,5470,0,0,0,10323,0,0,29262,0,0,0,0,0,0,0
85,VENDEE,2,63806,53024,51726,1298,6841,1795,0,0,0,8945,0,0,0,3145,580,14444,0,0,0,0,0,0,15976,0
85,VENDEE,3,76429,63013,60850,2163,5075,0,0,0,0,9436,0,0,0,7866,15,20223,18235,0,0,0,0,0,0,0
85,VENDEE,4,68127,60748,59191,1557,2487,0,0,0,0,6096,0,0,0,5887,0,44721,0,0,0,0,0,0,0,0
86,VIENNE,1,81656,66288,64422,1866,11590,0,0,2164,0,12126,0,0,0,8709,0,28622,0,0,0,0,0,0,0,1211
86,VIENNE,2,64408,51816,50322,1494,11674,0,0,0,0,7559,0,0,0,18571,0,12518,0,0,0,0,0,0,0,0
86,VIENNE,3,68977,56988,54838,2150,10800,0,0,0,0,17868,0,0,0,0,0,26170,0,0,0,0,0,0,0,0
87,HAUTE-VIENNE,1,77205,62312,60372,1940,19424,0,1512,0,654,16719,0,0,0,6815,0,15248,0,0,0,0,0,0,0,0
87,HAUTE-VIENNE,2,65252,54149,52658,1491,20326,0,0,0,0,9786,0,0,0,0,15093,7453,0,0,0,0,0,0,0,0
87,HAUTE-VIENNE,3,90340,72583,69963,2620,20770,2249,1780,0,0,25791,0,0,0,0,0,19373,0,0,0,0,0,0,0,0
88,VOSGES,1,72438,59136,57059,2077,7778,2310,0,0,0,16656,0,0,6323,0,0,23992,0,0,0,0,0,0,0,0
88,VOSGES,2,53523,43415,41501,1914,6851,0,0,0,0,15102,0,0,0,0,0,19548,0,0,0,0,0,0,0,0
88,VOSGES,3,55167,46303,45105,1198,5995,0,0,0,0,7289,0,0,0,2865,0,28956,0,0,0,0,0,0,0,0
88,VOSGES,4,57010,47306,45889,1417,4837,0,0,0,0,8893,0,0,7164,0,0,0,24995,0,0,0,0,0,0,0
89,YONNE,1,57206,46230,45285,945,7372,0,0,1105,0,9045,0,0,3496,0,0,0,24267,0,0,0,0,0,0,0
89,YONNE,2,55538,45555,43903,1652,9600,0,0,0,0,9024,0,0,0,0,0,0,25279,0,0,0,0,0,0,0
89,YONNE,3,71272,57803,56611,1192,15481,0,0,0,0,7832,0,0,0,12855,1209,19234,0,0,0,0,0,0,0,0
90,TERRITOIRE DE BELFORT,1,38863,31191,30441,750,3901,0,710,0,0,10883,0,0,2485,0,1587,10311,0,0,0,0,0,0,0,564
90,TERRITOIRE DE BELFORT,2,28906,23659,23097,562,2503,0,775,0,0,8757,0,0,0,2403,0,8659,0,0,0,0,0,0,0,0
91,ESSONNE,1,100391,83380,81861,1519,27679,3170,1700,0,0,7952,0,0,0,12420,2917,23656,0,0,0,0,0,0,0,2367
91,ESSONNE,2,108336,91410,89587,1823,26332,3146,2516,0,0,12649,0,0,0,15704,0,28809,0,0,0,0,0,0,0,431
91,ESSONNE,3,145833,120747,118188,2559,37487,4311,0,2258,654,17306,0,0,0,17005,6573,0,0,29848,0,0,0,0,0,2746
91,ESSONNE,4,76880,65926,64665,1261,19868,3987,0,0,0,9648,0,0,0,10218,0,20328,0,0,0,0,0,0,0,616
92,HAUTS-DE-SEINE,1,30198,24947,24454,493,13322,772,0,323,0,2730,0,0,0,1871,0,0,5193,0,0,0,0,0,0,243
92,HAUTS-DE-SEINE,2,44988,36964,36359,605,7878,1840,838,0,0,4762,0,0,0,5604,0,14866,0,0,0,0,0,0,0,571
92,HAUTS-DE-SEINE,3,60900,51525,50500,1025,18518,1741,877,0,0,5666,0,0,6241,0,0,0,0,0,17056,0,0,0,0,401
92,HAUTS-DE-SEINE,4,58403,48610,47833,777,16951,1111,0,681,204,7363,0,0,0,3488,2869,14111,0,0,0,0,0,0,0,1055
92,HAUTS-DE-SEINE,5,48188,40038,39470,568,8147,1560,875,0,0,6183,0,0,0,5836,0,0,14874,0,0,0,0,0,0,1995
92,HAUTS-DE-SEINE,6,58252,47507,46931,576,6728,2735,668,0,0,4669,0,0,0,8953,2206,19783,0,0,0,0,0,0,0,1189
92,HAUTS-DE-SEINE,7,60205,48530,47643,887,20875,1674,0,660,0,6304,0,0,0,6466,0,0,11664,0,0,0,0,0,0,0
92,HAUTS-DE-SEINE,8,58858,49025,48358,667,8938,0,0,1007,0,9008,0,0,0,7516,831,19632,0,0,0,0,0,0,0,1426
92,HAUTS-DE-SEINE,9,63681,51000,50316,684,9080,2252,1159,0,0,9733,0,0,0,8210,0,15227,0,0,0,0,4655,0,0,0
92,HAUTS-DE-SEINE,10,60655,48164,47556,608,9604,1988,823,0,0,6726,0,0,0,7345,157,19680,0,0,0,0,0,0,0,1233
92,HAUTS-DE-SEINE,11,63723,51983,51097,886,19922,2018,880,0,0,5660,0,0,0,8522,553,0,12196,0,0,0,0,0,0,1346
92,HAUTS-DE-SEINE,12,99052,81234,79855,1379,20404,4701,1901,0,0,12574,0,0,0,12554,0,26154,0,0,0,0,0,0,0,1567
92,HAUTS-DE-SEINE,13,90500,74006,72734,1272,20434,4142,0,1141,0,10239,0,0,0,17015,0,19619,0,0,0,0,0,0,0,144
93,SEINE-SAINT-DENIS,1,64185,53101,51571,1530,22806,1606,0,649,0,9109,0,0,3949,0,2689,10763,0,0,0,0,0,0,0,0
93,SEINE-SAINT-DENIS,2,42948,34801,33995,806,18398,1273,0,435,0,4023,0,0,2517,0,0,7349,0,0,0,0,0,0,0,0
93,SEINE-SAINT-DENIS,3,64535,53246,51807,1439,26573,1710,1412,0,0,6958,0,0,0,4673,0,0,9860,0,0,0,0,0,0,621
93,SEINE-SAINT-DENIS,4,64249,52373,50938,1435,29628,1830,1066,0,0,4782,0,0,0,0,4595,9037,0,0,0,0,0,0,0,0
93,SEINE-SAINT-DENIS,5,87828,71559,69317,2242,21621,1751,1335,0,0,13460,0,0,7674,0,393,21899,0,0,0,0,0,0,0,1184
93,SEINE-SAINT-DENIS,6,60686,49082,48087,995,18439,1468,1067,0,0,8242,0,0,0,6461,0,0,0,11175,0,0,0,0,0,1235
93,SEINE-SAINT-DENIS,7,69248,55545,53924,1621,23813,2606,0,0,0,6505,0,0,0,6132,1307,13561,0,0,0,0,0,0,0,0
93,SEINE-SAINT-DENIS,8,88612,73008,70551,2457,30795,2465,1465,0,500,8331,0,0,7294,0,0,16135,3566,0,0,0,0,0,0,0
93,SEINE-SAINT-DENIS,9,104233,86067,84060,2007,21421,2813,0,2046,0,18695,0,0,0,9913,1147,27981,0,0,0,0,0,0,0,44
94,VAL-DE-MARNE,1,73785,61317,60243,1074,26368,2731,0,0,0,7386,0,0,0,10721,0,11848,0,0,0,0,0,0,0,1189
94,VAL-DE-MARNE,2,82442,67910,66864,1046,25437,2598,1461,0,351,9334,0,0,0,8665,2214,16791,0,0,0,0,0,0,0,13
94,VAL-DE-MARNE,3,70827,60819,59849,970,32318,2506,0,800,0,6432,0,0,0,6140,0,11653,0,0,0,0,0,0,0,0
94,VAL-DE-MARNE,4,70030,58351,57552,799,12729,2291,1100,0,0,13100,0,0,0,4306,1084,0,22925,0,0,0,0,0,0,17
94,VAL-DE-MARNE,5,87000,71020,69860,1160,14831,3255,0,1398,0,9388,0,475,0,11394,2652,24952,0,0,0,0,0,0,0,1515
94,VAL-DE-MARNE,6,78075,64767,63782,985,17697,0,0,1437,0,9781,0,0,0,8662,0,24658,0,0,0,0,0,0,0,1547
94,VAL-DE-MARNE,7,70253,56997,56136,861,13351,1898,997,0,0,6618,0,0,0,11451,0,20305,0,0,0,0,0,0,0,1516
94,VAL-DE-MARNE,8,92375,76871,75560,1311,24033,3103,0,885,0,10083,0,0,0,4394,13667,19395,0,0,0,0,0,0,0,0
95,VAL-D'OISE,1,77932,64879,63473,1406,16864,2829,0,0,0,8961,0,0,0,6636,1039,0,26227,0,0,0,0,0,0,917
95,VAL-D'OISE,2,63373,52837,51962,875,14424,1867,1039,0,0,7979,0,0,0,7492,5687,13474,0,0,0,0,0,0,0,0
95,VAL-D'OISE,3,61509,50641,49789,852,25742,1832,985,0,264,4866,0,0,0,4371,0,7814,0,0,0,0,3915,0,0,0
95,VAL-D'OISE,4,91944,75503,74269,1234,14435,2945,0,0,0,12546,0,0,10991,0,10052,20967,0,0,0,0,0,0,1480,853
95,VAL-D'OISE,5,113316,94631,92972,1659,30491,3778,0,1505,0,15319,0,0,0,11419,4043,26417,0,0,0,0,0,0,0,0